Station;Day;Tmed;Tmin;Tmax;Rain
1;1;27,1;19,6;34,6;0
1;2;26,1;17,5;34,7;0
1;3;26,6;17,1;36,1;0
1;4;27,4;17,3;37,5;0
1;5;28,7;18,5;38,9;0
1;6;29,1;18,7;39,5;0
1;7;28,9;18,9;38,9;0
1;8;24,6;15,8;33,5;0
1;9;24,4;17,8;31,1;0
1;10;25;17,4;32,7;0
1;11;24,9;17,1;32,7;0
1;12;25,6;17,2;34,1;0
1;13;19,2;12,8;25,6;5,9
1;14;15,9;11,8;20;0
1;15;15;9,7;20,4;0
1;16;17,8;10,4;25,3;0
1;17;17,7;11,1;24,3;0
1;18;17,8;10,6;25;0
1;19;17,6;9;26,2;0
1;20;20;12,6;27,4;0
1;21;19,4;10,2;28,5;0
1;22;18,7;9,1;28,3;0
1;23;19,6;11,3;27,8;0
1;24;19,5;11,1;27,9;0
1;25;20;12,5;27,6;0
1;26;21,5;15,8;27,2;0
1;27;21;12,3;29,6;0
1;28;20,7;14,9;26,5;0
1;29;17,9;9,7;26,1;0
1;30;18,6;10,5;26,7;0
