Station;Parameter;Year;Month;Day;1h;2h;3h;4h;5h;6h;7h;8h;9h;10h;11h;12h;13h;14h;15h;16h;17h;18h;19h;20h;21h;22h;23h;24h
1;1;16;3;1;17;16;16;15;15;15;15;17;19;22;23;22;22;18;16;16;15;14;14;14;16;16;19;19
1;1;16;3;2;18;20;19;19;19;19;19;19;21;22;21;17;15;14;15;14;14;14;15;15;15;17;17;17
1;1;16;3;3;17;17;17;17;18;17;17;18;20;19;18;16;14;13;14;14;14;14;14;14;16;18;19;17
1;1;16;3;4;18;17;17;18;17;18;18;19;20;20;20;18;16;16;15;15;15;16;16;16;17;18;18;17
1;1;16;3;5;16;15;15;15;15;15;14;14;14;14;14;15;16;16;16;16;16;16;17;17;17;16;16;16
1;1;16;3;6;16;16;16;16;16;15;15;15;15;14;14;15;16;16;16;16;16;16;16;16;17;17;17;17
1;1;16;3;7;17;17;16;16;17;17;16;16;16;16;16;16;16;17;16;17;17;17;17;16;16;15;14;14
1;1;16;3;8;14;14;13;13;13;14;14;13;13;12;13;13;14;16;17;18;17;17;16;16;17;19;22;22
1;1;16;3;9;19;19;19;17;17;16;16;17;17;17;17;17;18;16;15;15;15;15;15;16;17;17;16;15
1;1;16;3;10;14;14;14;13;13;13;13;13;13;13;13;11;12;14;16;17;17;18;18;18;18;17;16;16
1;1;16;3;11;16;15;14;14;14;13;13;13;14;14;14;15;16;15;14;14;14;14;14;15;17;17;18;18
1;1;16;3;12;17;17;17;16;16;15;15;15;15;14;15;15;16;15;14;14;14;14;15;15;17;19;18;18
1;1;16;3;13;18;18;18;18;17;17;17;16;15;15;14;15;15;14;13;14;14;14;14;14;16;17;17;17
1;1;16;3;14;18;18;18;17;16;16;15;15;15;15;14;15;16;15;14;14;13;14;14;15;17;18;17;18
1;1;16;3;15;18;17;17;16;17;16;15;15;15;15;16;16;15;14;14;14;14;15;15;15;17;17;17;18
1;1;16;3;16;18;18;19;18;18;18;18;20;23;22;18;17;16;14;14;13;13;13;14;14;16;18;19;20
1;1;16;3;17;19;18;17;18;18;17;17;17;18;17;17;17;15;14;15;15;15;15;16;15;17;18;17;17
1;1;16;3;18;17;17;18;19;18;17;17;17;17;17;14;18;17;16;16;15;15;15;16;16;17;17;17;17
1;1;16;3;19;17;17;17;18;17;17;18;18;18;19;18;17;17;16;16;16;16;16;16;15;16;17;18;18
1;1;16;3;20;18;17;18;17;17;18;17;18;18;18;17;17;15;13;14;14;14;15;16;16;17;17;17;17
1;1;16;3;21;17;17;17;17;17;18;18;17;18;18;16;16;15;14;14;14;15;16;18;17;17;18;18;19
1;1;16;3;22;18;17;18;18;17;17;17;17;18;18;17;16;14;14;13;14;14;15;16;15;17;17;17;17
1;1;16;3;23;18;18;19;18;18;18;18;18;18;18;18;16;17;16;15;15;16;16;16;17;18;19;20;18
1;1;16;3;24;18;19;18;18;17;17;17;17;17;16;18;18;16;19;20;17;15;14;14;14;16;17;17;17
1;1;16;3;25;18;18;19;19;19;19;19;19;19;19;21;20;19;16;15;15;16;16;17;17;16;18;18;17
1;1;16;3;26;18;19;20;19;18;19;19;18;18;19;19;18;16;15;15;16;16;16;16;17;17;18;18;19
1;1;16;3;27;18;18;0;18;18;19;18;18;18;18;18;18;17;16;15;14;15;15;14;15;15;16;18;18
1;1;16;3;28;18;18;18;18;18;18;17;18;18;18;18;18;18;17;17;16;17;16;15;16;17;17;18;18
1;1;16;3;29;17;17;18;17;18;18;17;18;18;18;18;17;17;15;14;15;15;14;14;14;14;15;17;17
1;1;16;3;30;17;17;17;17;18;18;19;19;19;20;20;18;17;16;15;14;15;15;15;14;14;15;16;16
1;1;16;3;31;17;17;17;18;18;19;18;17;17;17;17;18;6;5;6;5;5;5;5;5;5;6;6;6
1;6;16;3;1;0,3;0,3;0,3;0,3;0,3;0,3;0,4;0,5;0,7;0,9;1;0,8;0,8;0,7;0,5;0,4;0,4;0,4;0,4;0,5;0,5;0,5;0,8;0,6
1;6;16;3;2;0,5;0,5;0,5;0,4;0,5;0,5;0,5;0,6;0,6;0,8;0,7;0,4;0,3;0,3;0,3;0,3;0,3;0,3;0,3;0,3;0,3;0,3;0,3;0,3
1;6;16;3;3;0,3;0,2;0,3;0,3;0,3;0,3;0,3;0,4;0,6;0,5;0,4;0,4;0,3;0,3;0,3;0,4;0,4;0,3;0,3;0,3;0,4;0,4;0,7;0,5
1;6;16;3;4;0,3;0,3;0,3;0,3;0,3;0,3;0,3;0,4;0,5;0,6;0,5;0,4;0,3;0,3;0,3;0,3;0,3;0,3;0,3;0,3;0,3;0,3;0,3;0,3
1;6;16;3;5;0,3;0,3;0,3;0,3;0,3;0,3;0,3;0,3;0,3;0,3;0,3;0,3;0,3;0,3;0,3;0,3;0,3;0,3;0,4;0,3;0,3;0,3;0,3;0,3
1;6;16;3;6;0,3;0,3;0,3;0,3;0,3;0,3;0,3;0,3;0,3;0,3;0,3;0,3;0,3;0,3;0,3;0,3;0,3;0,3;0,3;0,3;0,3;0,3;0,3;0,3
1;6;16;3;7;0,3;0,3;0,3;0,3;0,3;0,3;0,3;0,3;0,4;0,4;0,4;0,3;0,3;0,3;0,3;0,3;0,3;0,3;0,3;0,3;0,3;0,3;0,3;0,3
1;6;16;3;8;0,3;0,3;0,3;0,3;0,3;0,3;0,3;0,3;0,3;0,3;0,3;0,3;0,3;0,3;0,3;0,3;0,3;0,3;0,3;0,4;0,4;0,5;0,9;0,8
1;6;16;3;9;0,6;0,6;0,5;0,4;0,4;0,4;0,4;0,5;0,5;0,5;0,4;0,3;0,3;0,3;0,3;0,2;0,3;0,3;0,3;0,3;0,3;0,3;0,3;0,3
1;6;16;3;10;0,3;0,2;0,3;0,2;0,2;0,2;0,3;0,3;0,4;0,3;0,3;0,3;0,3;0,3;0,3;0,3;0,3;0,3;0,3;0,3;0,3;0,3;0,3;0,3
1;6;16;3;11;0,3;0,3;0,2;0,3;0,2;0,3;0,3;0,3;0,3;0,3;0,3;0,3;0,3;0,3;0,3;0,3;0,3;0,3;0,3;0,3;0,4;0,4;0,4;0,4
1;6;16;3;12;0,3;0,3;0,3;0,3;0,3;0,3;0,4;0,3;0,3;0,3;0,3;0,3;0,3;0,3;0,3;0,3;0,3;0,3;0,3;0,4;0,4;0,6;0,5;0,4
1;6;16;3;13;0,3;0,3;0,3;0,3;0,3;0,3;0,3;0,3;0,3;0,3;0,3;0,3;0,3;0,3;0,3;0,3;0,3;0,3;0,3;0,4;0,4;0,4;0,4;0,3
1;6;16;3;14;0,3;0,3;0,3;0,3;0,3;0,3;0,3;0,3;0,4;0,4;0,3;0,3;0,3;0,3;0,4;0,4;0,3;0,3;0,4;0,4;0,4;0,4;0,4;0,4
1;6;16;3;15;0,3;0,3;0,3;0,3;0,3;0,3;0,3;0,3;0,4;0,4;0,4;0,3;0,1;0,1;0,1;0,1;0,1;0,2;0,4;0,4;0,4;0,4;0,5;0,5
1;6;16;3;16;0,5;0,4;0,5;0,4;0,5;0,4;0,5;0,7;0,8;0,8;0,5;0,4;0,5;0,4;0,4;0,3;0,3;0,3;0,3;0,4;0,4;0,6;0,7;0,7
1;6;16;3;17;0,6;0,4;0,3;0,3;0,3;0,3;0,3;0,4;0,5;0,4;0,3;0,3;0,4;0,4;0,4;0,4;0,3;0,3;0,4;0,4;0,5;0,5;0,4;0,4
1;6;16;3;18;0,3;0,3;0,3;0,3;0,3;0,3;0,3;0,4;0,4;0,4;0,4;0,4;0,4;0,4;0,3;0,3;0,3;0,3;0,3;0,3;0,3;0,4;0,3;0,3
1;6;16;3;19;0,3;0,3;0,3;0,3;0,3;0,3;0,3;0,3;0,3;0,3;0,3;0,3;0,3;0,3;0,3;0,3;0,3;0,3;0,3;0,3;0,4;0,4;0,3;0,3
1;6;16;3;20;0,3;0,3;0,3;0,3;0,3;0,3;0,3;0,3;0,3;0,3;0,3;0,3;0,3;0,3;0,3;0,3;0,3;0,3;0,3;0,3;0,3;0,3;0,3;0,3
1;6;16;3;21;0,3;0,3;0,3;0,3;0,3;0,3;0,3;0,3;0,3;0,3;0,3;0,3;0,3;0,3;0,3;0,3;0,3;0,3;0,4;0,4;0,3;0,3;0,4;0,3
1;6;16;3;22;0,3;0,3;0,2;0,2;0,2;0,2;0,3;0,3;0,3;0,3;0,3;0,3;0,3;0,3;0,3;0,3;0,3;0,3;0,3;0,4;0,4;0,4;0,4;0,4
1;6;16;3;23;0,3;0,3;0,3;0,3;0,3;0,3;0,3;0,4;0,4;0,4;0,3;0,3;0,3;0,3;0,3;0,3;0,3;0,3;0,3;0,3;0,3;0,3;0,5;0,3
1;6;16;3;24;0,3;0,3;0,3;0,3;0,3;0,3;0,3;0,4;0,3;0,3;0,4;0,3;0,4;0,4;0,4;0,4;0,3;0,3;0,3;0,3;0,4;0,4;0,4;0,3
1;6;16;3;25;0,4;0,4;0,5;0,4;0,4;0,4;0,4;0,4;0,4;0,3;0,4;0,4;0,4;0,3;0,3;0,3;0,3;0,3;0,3;0,5;0,4;0,4;0,4;0,5
1;6;16;3;26;0,5;0,5;0,5;0,4;0,4;0,4;0,4;0,4;0,3;0,4;0,5;0,4;0,3;0,3;0,2;0,2;0,2;0,2;0,2;0,2;0,2;0,3;0,3;0,3
1;6;16;3;27;0,3;0,2;0;0,2;0,2;0,2;0,2;0,2;0,3;0,3;0,3;0,3;0,3;0,3;0,3;0,3;0,3;0,3;0,3;0,3;0,3;0,3;0,3;0,3
1;6;16;3;28;0,3;0,3;0,3;0,3;0,2;0,2;0,3;0,3;0,3;0,3;0,3;0,3;0,3;0,3;0,3;0,3;0,3;0,3;0,3;0,3;0,3;0,3;0,3;0,3
1;6;16;3;29;0,3;0,3;0,2;0,3;0,3;0,3;0,3;0,3;0,3;0,3;0,3;0,3;0,3;0,3;0,3;0,3;0,3;0,3;0,3;0,3;0,3;0,3;0,3;0,3
1;6;16;3;30;0,3;0,3;0,3;0,3;0,3;0,3;0,3;0,4;0,4;0,5;0,5;0,3;0,4;0,3;0,3;0,3;0,3;0,3;0,3;0,3;0,3;0,4;0,4;0,3
1;6;16;3;31;0,3;0,3;0,2;0,2;0,2;0,2;0,2;0,3;0,3;0,3;0,3;0,3;0,3;0,3;0,3;0,3;0,3;0,3;0,3;0,3;0,3;0,3;0,3;0,3
1;7;16;3;1;1;1;3;1;2;1;19;86;150;235;256;164;123;69;24;12;10;8;14;27;11;7;61;50
1;7;16;3;2;29;61;35;24;59;65;53;68;113;137;108;12;4;3;3;2;3;3;3;2;2;2;1;1
1;7;16;3;3;1;1;1;1;1;1;1;15;65;44;23;8;3;2;3;4;3;2;2;2;6;14;61;14
1;7;16;3;4;2;1;1;1;1;1;3;9;49;58;55;9;6;7;7;4;4;3;4;3;3;3;1;1
1;7;16;3;5;1;1;1;1;1;1;1;1;1;3;2;3;3;3;3;2;1;2;2;2;3;2;2;1
1;7;16;3;6;1;1;1;1;1;1;1;3;3;1;1;2;3;3;4;2;2;2;2;2;2;1;1;1
1;7;16;3;7;1;1;1;1;1;1;1;3;8;23;22;10;6;5;6;6;5;6;6;8;5;2;2;1
1;7;16;3;8;1;1;1;1;1;1;1;4;10;7;4;7;7;5;5;5;6;8;8;4;5;31;135;114
1;7;16;3;9;57;67;62;33;35;27;30;51;55;36;21;5;6;3;6;3;3;4;4;4;3;2;2;1
1;7;16;3;10;1;1;1;1;1;1;1;3;11;8;7;5;5;6;6;6;5;6;4;5;4;2;2;1
1;7;16;3;11;1;1;1;1;1;1;1;3;11;11;3;3;2;2;2;2;2;3;4;4;3;5;2;1
1;7;16;3;12;1;1;1;2;1;1;5;2;7;9;3;2;3;4;5;2;3;2;1;6;13;60;23;2
1;7;16;3;13;1;1;1;1;1;1;1;1;2;2;1;1;1;1;1;1;1;1;2;3;5;3;2;1
1;7;16;3;14;1;1;1;1;1;1;1;1;12;8;2;1;2;1;2;1;2;1;1;2;4;5;2;1
1;7;16;3;15;1;1;1;1;1;1;1;2;12;12;11;2;2;4;5;3;2;4;3;5;4;2;19;16
1;7;16;3;16;12;3;14;7;18;18;50;114;176;144;32;6;17;5;4;2;2;2;2;3;6;34;55;57
1;7;16;3;17;50;9;1;1;1;1;1;6;18;14;4;4;4;6;10;3;2;3;4;13;33;37;5;1
1;7;16;3;18;1;1;1;1;1;1;1;5;18;14;18;25;15;5;3;3;3;2;2;4;4;4;2;1
1;7;16;3;19;1;1;1;1;1;1;1;1;2;3;3;3;4;5;4;2;2;2;2;3;3;4;2;2
1;7;16;3;20;2;2;3;1;1;1;1;1;2;2;2;2;2;3;2;1;1;1;2;4;4;2;1;1
1;7;16;3;21;1;1;1;1;1;1;1;4;9;5;2;2;2;2;1;1;2;3;12;3;3;2;3;1
1;7;16;3;22;1;1;1;1;1;1;1;3;4;5;2;2;1;2;2;2;2;2;3;6;14;3;3;1
1;7;16;3;23;1;1;1;1;1;1;1;16;22;4;2;3;4;4;4;3;4;3;5;6;7;7;8;1
1;7;16;3;24;1;1;1;1;1;2;20;9;7;3;12;7;10;14;15;8;3;1;2;3;6;3;2;1
1;7;16;3;25;6;12;11;4;2;2;3;11;13;8;13;18;18;5;2;2;2;2;3;11;12;3;3;5
1;7;16;3;26;7;39;42;8;1;3;4;6;7;17;23;11;5;4;4;3;3;3;3;3;3;3;3;2
1;7;16;3;27;2;1;0;1;1;1;1;1;2;1;1;1;1;1;1;2;1;1;1;2;2;2;1;1
1;7;16;3;28;1;1;1;1;1;1;1;2;3;5;4;4;5;5;5;4;3;3;5;5;4;3;2;1
1;7;16;3;29;1;1;1;1;1;1;2;3;5;7;4;4;3;3;2;2;2;2;3;3;2;3;3;1
1;7;16;3;30;1;1;2;9;8;2;11;24;38;84;56;17;14;9;4;2;2;2;2;3;3;3;3;1
1;7;16;3;31;1;1;1;1;1;1;1;2;4;4;4;5;4;5;5;3;3;5;7;6;4;3;2;1
1;10;16;3;1;12;19;17;5;5;5;15;22;43;62;61;36;8;5;6;36;24;1;45;60;19;29;34;18
1;10;16;3;2;10;35;12;18;19;23;18;27;40;56;71;39;26;34;15;2;20;29;8;12;9;15;7;8
1;10;16;3;3;1;1;2;1;2;6;3;17;24;27;15;6;1;8;19;15;7;15;30;29;14;18;30;11
1;10;16;3;4;8;20;16;11;4;3;3;12;21;23;29;19;23;30;8;35;26;25;44;34;42;4;1;1
1;10;16;3;5;1;6;1;2;2;1;3;4;6;18;21;8;2;1;7;44;14;19;16;9;10;6;5;2
1;10;16;3;6;1;5;2;2;2;5;1;1;4;4;12;7;9;5;1;3;5;21;29;6;10;9;15;3
1;10;16;3;7;5;7;5;1;1;9;32;6;21;9;4;7;1;6;12;12;16;33;12;19;7;5;1;10
1;10;16;3;8;16;3;10;3;7;9;9;4;4;12;7;19;15;16;4;10;7;19;23;29;14;20;31;27
1;10;16;3;9;17;17;12;8;10;11;9;19;35;14;16;37;18;14;13;10;3;10;8;3;21;26;12;5
1;10;16;3;10;8;11;15;7;5;6;2;8;14;3;4;17;11;22;12;7;6;7;12;18;6;7;9;3
1;10;16;3;11;3;14;2;1;3;9;7;10;19;11;5;6;6;4;7;4;3;13;23;30;35;19;18;12
1;10;16;3;12;2;7;6;4;2;8;12;6;12;12;7;6;6;4;8;5;21;16;38;18;15;35;25;26
1;10;16;3;13;3;5;12;7;11;1;9;21;4;1;14;2;1;4;1;5;2;11;22;43;42;18;17;16
1;10;16;3;14;3;28;22;2;1;5;4;17;21;19;16;2;5;3;7;9;8;12;13;20;18;71;25;22
1;10;16;3;15;21;14;12;7;4;5;8;9;19;26;28;14;1;9;11;12;23;34;38;35;33;27;31;31
1;10;16;3;16;18;26;22;10;20;13;9;26;44;38;13;9;16;10;13;2;33;14;20;29;25;34;33;36
1;10;16;3;17;36;35;22;16;14;13;14;16;20;20;19;13;7;25;31;15;14;32;31;3;22;35;57;11
1;10;16;3;18;6;4;13;8;8;9;11;15;20;30;22;24;35;17;8;5;21;28;36;61;48;35;31;28
1;10;16;3;19;20;17;9;7;9;4;18;7;6;6;5;2;12;3;14;8;31;10;18;12;3;14;8;8
1;10;16;3;20;12;2;10;2;10;23;11;13;13;4;6;11;2;4;6;1;4;22;19;47;8;3;8;10
1;10;16;3;21;11;9;5;3;6;8;4;14;12;3;5;3;2;5;2;17;58;16;9;41;12;6;7;11
1;10;16;3;22;6;4;3;1;1;3;3;5;3;17;4;8;1;4;1;27;15;25;20;15;25;18;2;7
1;10;16;3;23;7;1;4;6;2;13;17;18;7;6;8;35;9;11;15;15;4;20;20;17;22;21;28;26
1;10;16;3;24;4;17;5;2;5;9;24;14;9;10;25;3;17;15;11;18;49;17;7;52;4;31;19;7
1;10;16;3;25;24;19;17;32;28;11;15;17;13;16;28;30;24;2;16;26;11;23;15;14;58;48;29;27
1;10;16;3;26;23;12;24;7;17;20;19;16;17;39;35;52;33;18;1;16;13;5;6;9;21;16;10;11
1;10;16;3;27;20;17;0;7;1;1;1;1;1;1;2;7;5;10;17;14;2;24;3;27;9;21;24;18
1;10;16;3;28;13;13;18;13;12;6;9;4;7;1;30;78;60;19;12;12;19;18;16;9;17;16;14;13
1;10;16;3;29;11;12;15;11;11;15;15;7;19;16;12;7;4;5;1;2;7;3;1;19;18;10;14;17
1;10;16;3;30;14;3;23;10;13;3;11;11;21;31;24;19;17;11;8;20;5;11;5;18;30;27;31;88
1;10;16;3;31;26;5;6;22;6;7;1;4;5;12;5;5;1;5;3;3;6;6;15;2;31;19;8;4
2;1;16;3;1;17;17;17;16;16;15;17;21;24;28;29;23;18;18;16;16;16;15;15;19;21;23;23;23
2;1;16;3;2;23;25;24;20;21;19;19;22;22;20;20;17;16;16;16;15;15;15;16;17;17;16;15;15
2;1;16;3;3;14;14;14;14;14;14;15;17;20;20;19;18;16;16;15;14;14;15;16;19;20;19;19;17
2;1;16;3;4;16;16;15;16;16;16;16;21;20;22;20;16;17;16;15;15;15;15;15;15;15;15;15;15
2;1;16;3;5;15;15;15;15;15;15;14;15;16;16;16;15;15;16;16;16;16;16;16;16;16;16;16;16
2;1;16;3;6;15;15;15;15;15;15;16;16;16;16;16;16;16;16;16;18;16;16;16;16;16;16;16;15
2;1;16;3;7;15;15;15;15;15;15;15;15;17;17;19;22;23;24;24;24;25;23;23;24;23;21;20;18
2;1;16;3;8;17;16;16;16;16;16;16;18;20;21;19;23;22;23;23;23;23;24;24;22;24;22;18;17
2;1;16;3;9;18;17;16;16;16;15;16;18;20;20;19;18;18;18;18;18;18;18;18;20;22;20;18;16
2;1;16;3;10;16;16;16;15;15;16;16;17;18;20;18;21;22;23;23;23;23;24;24;22;23;22;21;19
2;1;16;3;11;18;17;16;16;17;16;16;16;17;20;18;18;20;22;19;18;19;20;21;21;24;22;19;17
2;1;16;3;12;18;18;19;16;16;16;16;15;18;20;19;19;20;19;19;16;15;15;15;16;18;19;22;20
2;1;16;3;13;18;17;16;16;15;16;16;16;17;18;19;21;19;18;16;16;17;16;15;15;18;20;24;20
2;1;16;3;14;18;16;16;15;15;15;15;16;18;19;18;21;20;20;19;16;15;15;15;16;24;26;21;18
2;1;16;3;15;17;16;16;15;15;15;15;17;20;19;22;20;18;18;16;14;15;15;16;17;17;17;16;16
2;1;16;3;16;19;18;18;17;17;16;17;21;22;26;19;19;19;16;15;16;17;17;16;19;19;20;20;19
2;1;16;3;17;20;18;19;17;17;16;15;16;18;20;20;21;18;16;15;14;15;15;15;17;20;19;19;17
2;1;16;3;18;17;16;16;15;15;15;15;18;20;20;19;18;17;16;15;15;15;15;16;16;15;15;15;14
2;1;16;3;19;14;15;15;15;14;14;14;14;14;14;14;14;14;15;14;14;14;15;14;15;15;15;15;14
2;1;16;3;20;15;15;15;14;14;14;14;14;15;16;16;16;15;15;17;16;14;14;15;15;16;17;18;17
2;1;16;3;21;17;17;16;16;15;15;15;17;18;18;17;18;17;16;18;15;16;19;18;15;16;16;16;15
2;1;16;3;22;15;15;15;15;15;15;15;16;17;18;19;20;20;16;15;15;16;16;15;16;19;20;17;16
2;1;16;3;23;16;15;15;15;15;15;16;17;20;19;18;17;18;18;20;16;18;19;22;23;21;18;17;16
2;1;16;3;24;16;15;15;15;15;15;15;15;15;17;17;17;17;16;14;14;13;13;13;15;16;18;22;18
2;1;16;3;25;19;16;16;16;17;17;16;17;17;18;17;17;15;15;14;14;18;16;15;15;16;16;16;16
2;1;16;3;26;16;16;16;15;15;15;15;15;17;16;16;15;15;15;15;14;14;14;14;15;15;15;14;14
2;1;16;3;27;14;14;0;14;14;14;14;15;15;15;15;15;15;14;14;13;13;13;13;14;14;14;15;15
2;1;16;3;28;15;14;15;15;14;14;15;16;16;16;16;16;15;14;15;15;15;15;15;15;15;15;14;14
2;1;16;3;29;14;14;14;14;14;14;14;15;15;15;16;15;15;14;14;13;14;14;13;14;14;15;15;15
2;1;16;3;30;15;15;15;15;15;15;16;18;21;23;23;20;18;15;14;14;14;14;14;14;15;16;16;15
2;1;16;3;31;15;15;14;14;14;14;14;15;15;16;16;16;16;20;18;18;19;19;20;21;21;20;18;17
2;6;16;3;1;0,4;0,4;0,4;0,3;0,3;0,3;0,4;0,6;0,9;1,1;1,2;1;0,7;0,5;0,5;0,5;0,5;0,5;0,5;0,6;0,8;0,9;0,9;0,9
2;6;16;3;2;0,9;1;1,1;0,9;0,8;0,7;0,6;0,6;0,7;0,7;0,6;0,5;0,5;0,4;0,4;0,5;0,5;0,5;0,5;0,5;0,5;0,5;0,4;0,3
2;6;16;3;3;0,3;0,3;0,3;0,3;0,3;0,3;0,3;0,4;0,6;0,8;0,6;0,5;0,4;0,5;0,6;0,5;0,5;0,5;0,6;0,6;0,6;0,7;0,7;0,6
2;6;16;3;4;0,6;0,6;0,5;0,5;0,5;0,4;0,4;0,7;0,8;0,9;0,7;0,5;0,5;0,5;0,9;0,5;0,5;0,5;0,5;0,5;0,4;0,4;0,4;0,4
2;6;16;3;5;0,4;0,3;0,3;0,3;0,3;0,3;0,3;0,3;0,3;0,4;0,4;0,4;0,4;0,4;0,4;0,4;0,4;0,3;0,4;0,4;0,4;0,5;0,5;0,5
2;6;16;3;6;0,5;0,4;0,4;0,3;0,3;0,3;0,3;0,4;0,4;0,3;0,3;0,3;0,3;0,3;0,3;0,4;0,4;0,4;0,4;0,4;0,4;0,4;0,4;0,4
2;6;16;3;7;0,4;0,3;0,3;0,3;0,3;0,3;0,3;0,4;0,5;0,6;0,6;0,6;0,5;0,4;0,5;0,4;0,4;0,4;0,5;0,5;0,5;0,5;0,4;0,4
2;6;16;3;8;0,3;0,3;0,3;0,3;0,3;0,3;0,3;0,4;0,5;0,6;0,4;0,5;0,4;0,4;0,4;0,4;0,4;0,5;0,5;0,5;0,6;0,6;0,6;0,6
2;6;16;3;9;0,6;0,6;0,5;0,4;0,4;0,4;0,4;0,4;0,6;0,7;0,6;0,5;0,5;0,5;0,5;0,5;0,5;0,5;0,4;0,4;0,5;0,4;0,4;0,3
2;6;16;3;10;0,3;0,3;0,3;0,3;0,3;0,3;0,3;0,4;0,6;0,6;0,5;0,4;0,4;0,4;0,4;0,4;0,4;0,4;0,4;0,5;0,5;0,5;0,5;0,4
2;6;16;3;11;0,4;0,3;0,3;0,3;0,3;0,3;0,3;0,4;0,5;0,6;0,5;0,4;0,4;0,4;0,4;0,4;0,4;0,4;0,4;0,5;0,6;0,6;0,5;0,4
2;6;16;3;12;0,4;0,4;0,4;0,3;0,3;0,3;0,3;0,3;0,4;0,4;0,4;0,4;0,4;0,4;0,5;0,4;0,4;0,4;0,4;0,4;0,5;0,6;0,7;0,6
2;6;16;3;13;0,5;0,4;0,4;0,3;0,3;0,3;0,3;0,3;0,4;0,4;0,4;0,4;0,4;0,4;0,4;0,4;0,3;0,4;0,4;0,5;0,6;0,6;0,7;0,5
2;6;16;3;14;0,4;0,3;0,3;0,3;0,3;0,3;0,3;0,4;0,5;0,6;0,5;0,5;0,4;0,4;0,4;0,4;0,4;0,4;0,5;0,5;0,6;0,7;0,6;0,5
2;6;16;3;15;0,4;0,4;0,4;0,4;0,4;0,4;0,4;0,5;0,6;0,6;0,6;0,6;0,5;0,5;0,6;0,5;0,5;0,5;0,6;0,6;0,6;0,6;0,6;0,6
2;6;16;3;16;0,7;0,6;0,6;0,5;0,4;0,4;0,5;0,7;0,9;1;0,8;0,6;0,6;0,5;0,4;0,4;0,4;0,4;0,5;0,5;0,5;0,7;0,8;0,8
2;6;16;3;17;0,7;0,6;0,5;0,4;0,4;0,4;0,4;0,5;0,6;0,6;0,6;0,5;0,5;0,5;0,5;0,5;0,5;0,5;0,6;0,6;0,6;0,6;0,6;0,5
2;6;16;3;18;0,4;0,4;0,3;0,3;0,3;0,3;0,3;0,4;0,6;0,6;0,6;0,5;0,5;0,5;0,4;0,5;0,4;0,5;0,5;0,5;0,5;0,4;0,4;0,4
2;6;16;3;19;0,4;0,4;0,4;0,3;0,3;0,3;0,3;0,3;0,3;0,3;0,3;0,3;0,3;0,4;0,4;0,3;0,3;0,4;0,4;0,4;0,5;0,5;0,5;0,4
2;6;16;3;20;0,4;0,4;0,4;0,3;0,3;0,3;0,3;0,4;0,4;0,4;0,4;0,4;0,3;0,3;0,3;0,3;0,3;0,3;0,4;0,4;0,4;0,4;0,5;0,5
2;6;16;3;21;0,5;0,4;0,4;0,4;0,3;0,3;0,3;0,4;0,5;0,5;0,4;0,4;0,4;0,3;0,4;0,3;0,4;0,5;0,5;0,4;0,4;0,4;0,4;0,4
2;6;16;3;22;0,3;0,3;0,3;0,3;0,3;0,3;0,4;0,4;0,5;0,6;0,5;0,4;0,4;0,4;0,3;0,4;0,5;0,4;0,5;0,5;0,6;0,6;0,5;0,4
2;6;16;3;23;0,4;0,4;0,4;0,4;0,4;0,4;0,4;0,5;0,6;0,6;0,4;0,8;0,7;0,4;0,4;0,4;0,4;0,4;0,4;0,5;0,5;0,5;0,5;0,4
2;6;16;3;24;0,4;0,3;0,3;0,3;0,3;0,3;0,2;0,2;0,2;0,2;0,2;0,2;0,3;0,3;0,3;0,3;0,3;0,3;0,3;0,3;0,3;0,3;0,4;0,4
2;6;16;3;25;0,4;0,4;0,4;0,3;0,3;0,4;0,3;0,3;0,4;0,3;0,3;0,3;0,3;0,3;0,3;0,3;0,3;0,2;0,2;0,3;0,3;0,3;0,3;0,3
2;6;16;3;26;0,3;0,3;0,3;0,3;0,3;0,3;0,2;0,2;0,3;0,3;0,2;0,2;0,2;0,2;0,2;0,2;0,2;0,2;0,2;0,2;0,2;0,2;0,2;0,2
2;6;16;3;27;0,1;0,1;0;0,1;0,1;0,1;0,1;0,1;0,1;0,1;0,1;0,2;0,2;0,2;0,2;0,2;0,2;0,2;0,2;0,2;0,2;0,2;0,2;0,2
2;6;16;3;28;0,2;0,2;0,2;0,1;0,1;0,1;0,1;0,2;0,2;0,3;0,3;4,9;6,7;0,4;0,4;0,4;0,4;0,4;0,4;0,4;0,4;0,4;0,3;0,3
2;6;16;3;29;0,3;0,3;0,2;0,2;0,2;0,3;0,3;0,3;0,4;0,4;0,5;0,4;0,4;0,4;0,4;0,4;0,4;0,5;0,4;0,4;0,4;0,4;0,4;0,4
2;6;16;3;30;0,5;0,4;0,4;0,3;0,3;0,3;0,3;0,5;0,6;0,8;0,7;0,5;0,4;0,4;0,4;0,4;0,4;0,4;0,5;0,5;0,5;0,5;0,5;0,4
2;6;16;3;31;0,4;0,3;0,3;0,2;0,2;0,2;0,2;0,3;0,4;0,5;0,4;0,4;0,4;0,4;0,4;0,4;0,4;0,4;0,4;0,4;0,5;0,4;0,4;0,3
2;7;16;3;1;6;4;2;4;4;17;60;174;226;257;214;129;84;48;40;29;25;33;31;80;82;119;119;121
2;7;16;3;2;93;129;126;76;102;96;82;150;136;75;71;48;27;23;20;23;26;25;31;25;28;29;10;3
2;7;16;3;3;7;6;5;3;3;2;3;20;89;76;59;25;25;26;31;21;22;31;43;20;35;78;68;41
2;7;16;3;4;25;47;16;38;34;19;25;125;117;170;123;38;41;26;25;34;30;27;29;30;29;28;12;8
2;7;16;3;5;11;8;9;6;7;5;4;9;11;21;18;21;18;18;18;8;14;9;15;19;18;23;14;15
2;7;16;3;6;14;10;12;7;7;3;6;10;13;6;8;11;11;12;10;8;10;17;19;25;19;19;15;10
2;7;16;3;7;7;7;6;4;3;6;12;30;63;47;41;34;20;18;17;14;18;16;17;16;13;10;5;4
2;7;16;3;8;5;3;2;3;1;2;4;13;33;30;17;20;18;17;14;14;14;16;17;22;21;47;45;33
2;7;16;3;9;65;54;21;12;8;10;17;64;89;95;72;51;44;44;41;25;30;29;20;7;11;7;4;3
2;7;16;3;10;3;3;2;1;1;3;8;44;59;63;29;19;18;16;14;14;14;15;17;19;20;16;9;6
2;7;16;3;11;6;3;2;2;2;2;6;20;47;37;20;18;15;16;14;12;14;15;17;21;27;21;13;9
2;7;16;3;12;11;15;11;6;8;7;5;5;17;15;13;15;18;25;25;17;13;12;12;25;36;43;74;18
2;7;16;3;13;12;12;8;5;4;4;3;4;6;8;11;29;10;8;10;7;5;11;14;20;34;44;35;8
2;7;16;3;14;6;2;3;1;2;2;5;16;40;32;19;18;14;11;10;10;11;17;18;22;47;56;12;6
2;7;16;3;15;7;4;2;4;1;2;6;29;55;45;40;35;25;29;28;21;27;31;32;34;30;27;18;24
2;7;16;3;16;40;44;53;22;11;13;51;143;135;187;81;70;62;21;14;10;13;18;15;12;36;43;67;45
2;7;16;3;17;61;12;11;5;2;3;6;25;54;45;38;31;32;38;22;23;24;31;33;36;19;18;31;10
2;7;16;3;18;8;4;3;3;2;3;8;54;71;74;57;44;40;28;17;27;19;27;32;25;27;20;20;8
2;7;16;3;19;7;10;11;7;6;7;4;8;7;9;13;14;15;18;19;9;11;15;16;20;21;20;22;14
2;7;16;3;20;14;15;15;11;13;8;10;8;13;17;14;13;9;11;10;7;6;14;12;16;12;11;9;9
2;7;16;3;21;7;5;6;3;3;5;9;32;48;32;19;19;18;10;11;12;16;26;20;21;19;10;6;5
2;7;16;3;22;7;3;3;3;1;3;4;18;30;30;23;20;18;11;12;19;28;18;21;29;48;18;15;7
2;7;16;3;23;9;12;13;15;7;12;34;60;109;48;26;17;10;10;10;9;9;8;9;11;11;21;14;5
2;7;16;3;24;6;5;4;3;2;7;7;22;10;8;11;10;15;15;11;10;8;13;12;9;19;29;66;20
2;7;16;3;25;36;21;20;24;49;54;36;58;43;24;26;22;13;9;10;9;6;4;11;9;17;16;26;27
2;7;16;3;26;38;37;41;18;25;20;15;28;49;34;19;14;16;12;15;13;14;13;16;17;20;20;14;10
2;7;16;3;27;8;10;0;12;3;3;2;3;6;7;11;11;9;10;14;11;12;12;14;13;15;13;11;11
2;7;16;3;28;11;7;7;3;3;4;12;29;34;37;55;31;33;27;22;21;16;17;19;22;14;11;6;6
2;7;16;3;29;5;4;2;3;3;4;5;13;29;30;47;22;21;9;5;5;6;8;6;9;13;18;17;10
2;7;16;3;30;20;13;29;15;10;5;23;72;104;119;117;58;33;18;6;4;4;5;10;12;13;17;21;9
2;7;16;3;31;4;3;2;2;1;1;2;15;28;29;37;29;30;9;4;4;12;15;17;16;15;13;8;6
2;10;16;3;1;10;8;5;11;8;6;15;21;36;48;60;48;40;30;24;27;17;17;20;31;31;32;33;30
2;10;16;3;2;31;30;28;26;24;31;28;25;33;36;35;29;15;14;21;21;16;21;23;26;17;20;15;8
2;10;16;3;3;7;8;8;9;10;8;12;9;21;32;30;22;16;17;22;22;14;18;20;19;15;25;29;25
2;10;16;3;4;18;22;20;18;46;20;15;22;32;1;1;22;24;26;28;29;25;26;26;22;16;12;15;11
2;10;16;3;5;10;7;10;6;2;2;4;11;12;10;12;10;6;7;10;5;7;10;8;8;8;15;13;9
2;10;16;3;6;11;10;6;10;2;1;1;3;4;4;3;3;5;2;5;11;8;3;6;9;12;11;10;6
2;10;16;3;7;6;8;3;6;4;4;8;9;13;21;18;14;17;13;11;8;11;13;10;8;7;9;5;5
2;10;16;3;8;2;4;1;1;1;4;5;1;7;10;9;11;12;15;12;8;10;11;8;8;11;13;21;23
2;10;16;3;9;16;20;19;9;9;5;7;12;18;22;23;15;15;16;11;17;16;14;17;14;7;10;9;9
2;10;16;3;10;7;7;7;4;4;3;3;6;11;21;17;14;14;13;10;7;15;11;9;7;10;11;10;9
2;10;16;3;11;7;7;9;4;1;4;4;8;16;17;12;10;5;7;13;10;9;9;15;11;12;13;13;11
2;10;16;3;12;9;13;13;9;9;9;9;5;13;14;10;12;16;20;24;27;20;18;20;35;38;33;31;31
2;10;16;3;13;18;17;16;11;10;12;11;11;13;18;16;21;20;18;17;19;15;14;27;34;35;34;35;27
2;10;16;3;14;16;19;17;22;20;21;20;18;24;29;30;23;1;1;14;20;19;19;27;36;40;42;25;16
2;10;16;3;15;15;16;12;16;16;15;17;18;26;30;28;30;23;26;35;24;24;28;31;37;44;37;35;29
2;10;16;3;16;34;37;40;42;109;26;29;35;49;47;53;40;46;43;30;21;18;21;24;22;19;36;39;41
2;10;16;3;17;36;37;20;21;19;15;14;12;24;23;22;23;28;31;31;27;30;28;27;32;32;20;27;22
2;10;16;3;18;17;14;14;9;12;15;14;14;27;32;39;40;37;37;34;28;24;23;29;30;19;12;23;12
2;10;16;3;19;21;16;17;14;9;7;15;11;15;11;10;6;12;16;8;13;4;1;1;6;11;12;13;13
2;10;16;3;20;15;15;7;9;9;10;8;3;6;20;26;18;15;10;4;7;11;8;13;8;15;13;12;9
2;10;16;3;21;10;9;11;13;16;9;11;13;18;22;20;10;8;5;6;6;14;19;16;10;11;4;1;6
2;10;16;3;22;8;2;2;1;1;2;5;9;19;18;19;11;12;14;10;12;15;13;17;18;19;18;17;18
2;10;16;3;23;18;19;15;17;15;15;19;22;27;32;23;20;13;12;16;19;16;16;19;21;17;21;23;26
2;10;16;3;24;22;21;16;20;15;16;18;16;16;16;16;17;20;23;23;19;16;9;13;20;24;23;25;23
2;10;16;3;25;26;23;19;16;19;25;22;28;32;28;26;26;30;23;17;18;15;10;14;21;25;21;23;31
2;10;16;3;26;29;32;35;30;24;32;30;26;37;36;28;26;15;18;16;13;10;12;16;6;12;9;9;10
2;10;16;3;27;10;10;0;6;2;9;9;7;8;7;7;4;5;8;9;10;9;10;9;13;18;15;14;11
2;10;16;3;28;9;11;12;8;10;9;13;16;15;12;18;20;17;20;23;16;10;11;13;14;12;20;17;13
2;10;16;3;29;10;13;12;14;16;16;15;12;22;20;30;21;18;21;27;17;16;15;9;15;23;24;18;4
2;10;16;3;30;23;17;18;16;23;24;22;24;27;38;45;30;23;25;23;21;25;25;28;28;32;34;31;19
2;10;16;3;31;22;22;15;14;14;18;2;4;7;14;12;16;11;10;12;10;9;10;9;7;6;4;6;6
3;1;16;3;1;5;4;4;4;3;4;4;5;7;7;8;6;5;5;4;4;4;4;4;5;5;6;7;8
3;1;16;3;2;8;5;6;6;6;6;7;9;9;6;4;5;4;3;3;4;4;3;3;4;3;4;3;3
3;1;16;3;3;3;3;3;3;3;3;3;3;5;4;4;3;4;4;3;3;3;3;3;3;4;4;5;5
3;1;16;3;4;4;5;4;5;5;5;3;4;6;12;5;4;4;4;4;4;4;4;4;4;3;3;3;3
3;1;16;3;5;3;3;3;3;3;3;3;3;3;3;3;3;3;3;3;3;3;3;3;3;3;3;3;3
3;1;16;3;6;3;3;3;3;3;3;3;3;3;3;3;3;3;3;3;3;3;3;3;4;4;4;4;3
3;1;16;3;7;3;3;3;3;3;3;3;3;3;3;4;4;3;3;3;3;4;3;4;4;4;4;4;4
3;1;16;3;8;3;3;3;3;3;3;3;4;4;4;3;3;4;3;4;3;3;3;3;4;5;7;5;4
3;1;16;3;9;4;4;4;4;4;4;3;3;5;4;4;4;4;4;4;4;3;3;3;3;3;3;3;3
3;1;16;3;10;3;3;3;3;3;3;3;4;4;4;3;3;3;3;3;3;3;3;4;5;4;4;4;4
3;1;16;3;11;3;3;3;3;3;3;4;4;5;5;4;4;4;4;4;4;4;4;4;3;4;4;4;4
3;1;16;3;12;4;4;4;4;4;4;4;4;5;6;6;5;5;6;5;4;4;4;4;4;5;5;5;6
3;1;16;3;13;5;4;3;4;3;3;3;4;4;5;5;4;4;4;5;5;5;5;4;5;5;5;6;6
3;1;16;3;14;4;4;4;4;4;3;4;4;5;5;4;4;4;4;4;4;4;4;3;4;6;7;6;4
3;1;16;3;15;4;3;3;3;3;3;3;4;6;7;8;7;5;5;4;4;4;4;3;4;4;4;4;4
3;1;16;3;16;4;4;4;4;3;4;4;6;7;9;6;8;6;4;3;3;3;3;3;3;4;4;6;5
3;1;16;3;17;6;6;5;4;3;3;4;4;6;7;7;7;5;4;4;4;4;4;4;4;4;5;6;6
3;1;16;3;18;6;4;4;3;3;3;4;5;7;8;6;6;5;4;4;4;4;4;4;4;4;3;3;3
3;1;16;3;19;3;3;3;3;3;3;3;3;3;3;3;3;3;3;3;4;3;3;3;3;3;4;4;3
3;1;16;3;20;3;3;3;3;3;3;3;3;3;3;3;4;3;4;3;3;3;3;4;4;3;3;4;4
3;1;16;3;21;4;4;3;3;3;3;3;4;4;4;4;4;4;3;3;3;3;4;4;4;3;3;3;3
3;1;16;3;22;3;3;3;3;3;3;3;3;3;4;4;4;4;4;3;3;3;3;3;3;3;4;5;5
3;1;16;3;23;4;4;4;4;3;3;4;4;6;7;5;4;4;4;3;3;3;3;3;4;3;3;3;3
3;1;16;3;24;4;3;3;3;3;3;3;4;4;4;4;5;4;4;4;4;3;3;3;4;4;4;4;5
3;1;16;3;25;4;4;3;4;3;3;3;4;4;5;5;4;4;3;3;4;4;4;4;4;4;4;4;4
3;1;16;3;26;5;6;4;4;3;3;3;4;4;4;4;4;4;4;4;3;3;3;4;3;3;3;3;3
3;1;16;3;27;3;3;0;3;3;3;3;3;3;3;3;3;3;3;3;3;3;3;3;3;3;3;3;3
3;1;16;3;28;3;3;3;3;3;3;3;3;3;3;3;3;3;3;3;3;3;3;3;3;3;3;3;3
3;1;16;3;29;3;3;3;3;3;3;3;3;3;3;3;3;4;4;3;3;3;3;3;3;4;4;3;3
3;1;16;3;30;4;4;4;4;3;3;4;4;7;8;10;9;6;4;4;4;4;4;4;4;4;4;5;3
3;1;16;3;31;3;3;3;3;3;3;3;3;3;3;3;3;3;3;3;3;4;3;3;3;3;4;3;3
3;6;16;3;1;0,5;0,4;0,6;0,5;0,4;0,4;0,4;0,5;0,8;0,7;0,7;0,5;0,4;0,4;0,3;0,3;0,3;0,3;0,4;0,4;0,6;0,6;0,7;0,7
3;6;16;3;2;0,9;0,5;0,6;0,7;0,6;0,7;0,7;0,8;1,1;0,6;0,4;0,4;0,3;0,3;0,3;0,2;0,3;0,3;0,3;0,3;0,3;0,3;0,3;0,2
3;6;16;3;3;0,2;0,2;0,2;0,2;0,2;0,3;0,3;0,4;0,7;0,5;0,4;0,4;0,7;0,3;0,3;0,3;0,3;0,3;0,3;0,4;0,5;0,5;0,5;0,5
3;6;16;3;4;0,4;0,5;0,4;0,5;0,5;0,5;0,4;0,5;0,9;0,9;0,4;0,3;0,3;0,3;0,3;0,3;0,3;0,3;0,3;0,3;0,3;0,3;0,3;0,3
3;6;16;3;5;0,3;0,3;0,2;0,2;0,2;0,2;0,3;0,3;0,3;0,3;0,3;0,3;0,3;0,3;0,3;0,3;0,3;0,3;0,3;0,3;0,3;0,3;0,3;0,3
3;6;16;3;6;0,3;0,3;0,3;0,3;0,2;0,2;0,3;0,3;0,3;0,3;0,3;0,3;0,3;0,3;0,3;0,3;0,3;0,3;0,3;0,4;0,3;0,3;0,4;0,3
3;6;16;3;7;0,2;0,3;0,3;0,2;0,3;0,3;0,3;0,3;0,3;0,4;0,4;0,3;0,3;0,3;0,3;0,3;0,3;0,3;0,3;0,3;0,3;0,3;0,3;0,3
3;6;16;3;8;0,3;0,3;0,2;0,3;0,3;0,3;0,3;0,3;0,4;0,3;0,3;0,3;0,3;0,3;0,3;0,3;0,3;0,3;0,3;0,4;0,5;0,6;0,5;0,4
3;6;16;3;9;0,4;0,3;0,4;0,4;0,4;0,4;0,3;0,4;0,6;0,4;0,4;0,3;0,3;0,3;0,3;0,3;0,3;0,3;0,3;0,3;0,3;0,3;0,3;0,3
3;6;16;3;10;0,2;0,2;0,2;0,2;0,2;0,2;0,3;0,5;0,5;0,4;0,3;0,3;0,3;0,3;0,3;0,3;0,3;0,3;0,3;0,3;0,4;0,3;0,3;0,3
3;6;16;3;11;0,3;0,3;0,2;0,2;0,2;0,2;0,3;0,4;0,4;0,4;0,3;0,3;0,3;0,3;0,3;0,3;0,3;0,3;0,3;0,4;0,4;0,5;0,5;0,4
3;6;16;3;12;0,3;0,3;0,4;0,4;0,4;0,3;0,4;0,4;0,5;0,4;0,4;0,4;0,4;0,4;0,4;0,3;0,3;0,3;0,3;0,4;0,5;0,5;0,6;0,6
3;6;16;3;13;0,5;0,4;0,4;0,4;0,3;0,3;0,3;0,3;0,3;0,3;0,4;0,3;0,3;0,3;0,3;0,3;0,3;0,3;0,3;0,4;0,4;0,5;0,7;0,6
3;6;16;3;14;0,3;0,3;0,3;0,3;0,3;0,3;0,3;0,4;0,5;0,4;0,4;0,3;0,3;0,3;0,3;0,3;0,3;0,3;0,3;0,4;0,6;0,7;0,6;0,4
3;6;16;3;15;0,4;0,3;0,3;0,3;0,3;0,3;0,4;0,5;0,6;0,6;0,6;0,5;0,4;0,4;0,4;0,3;0,4;0,3;0,3;0,4;0,5;0,4;0,4;0,4
3;6;16;3;16;0,4;0,5;0,5;0,4;0,4;0,4;0,4;0,7;0,8;0,8;0,5;0,5;0,4;0,3;0,3;0,3;0,3;0,3;0,3;0,3;0,4;0,4;0,4;0,6
3;6;16;3;17;0,7;0,6;0,5;0,4;0,4;0,4;0,5;0,6;0,7;0,6;0,5;0,5;0,4;0,4;0,3;0,3;0,3;0,3;0,3;0,4;0,4;0,5;0,6;0,7
3;6;16;3;18;0,5;0,5;0,4;0,3;0,3;0,3;0,4;0,5;0,6;0,6;0,4;0,4;0,3;0,3;0,3;0,3;0,3;0,3;0,3;0,3;0,3;0,3;0,3;0,3
3;6;16;3;19;0,3;0,4;0,3;0,3;0,3;0,3;0,3;0,3;0,3;0,3;0,3;0,3;0,3;0,3;0,3;0,3;0,3;0,3;0,3;0,3;0,3;0,4;0,4;0,4
3;6;16;3;20;0,3;0,3;0,3;0,3;0,3;0,3;0,3;0,3;0,3;0,3;0,3;0,3;0,3;0,3;0,3;0,3;0,3;0,3;0,3;0,3;0,3;0,4;0,4;0,5
3;6;16;3;21;0,5;0,3;0,3;0,3;0,3;0,3;0,3;0,3;0,4;0,3;0,3;0,3;0,3;0,3;0,3;0,3;0,3;0,4;0,4;0,4;0,4;0,4;0,3;0,3
3;6;16;3;22;0,3;0,3;0,3;0,2;0,2;0,3;0,3;0,3;0,4;0,4;0,3;0,3;0,3;0,3;0,3;0,3;0,3;0,3;0,3;0,3;0,5;0,5;0,7;0,5
3;6;16;3;23;0,4;0,6;0,4;0,4;0,4;0,4;0,4;0,5;0,9;1,2;0,4;0,3;0,3;0,3;0,3;0,3;0,3;0,3;0,3;0,3;0,3;0,4;0,4;0,4
3;6;16;3;24;0,3;0,3;0,3;0,3;0,3;0,3;0,3;0,4;0,3;0,3;0,3;0,4;0,3;0,3;0,3;0,3;0,3;0,3;0,3;0,3;0,4;0,4;0,4;0,4
3;6;16;3;25;0,5;0,5;0,4;0,4;0,3;0,3;0,3;0,3;0,3;0,5;0,4;0,4;0,3;0,3;0,3;0,3;0,3;0,3;0,3;0,4;0,4;0,4;0,5;0,7
3;6;16;3;26;0,6;0,7;0,5;0,4;0,4;0,4;0,4;0,4;0,3;0,4;0,3;0,3;0,3;0,2;0,2;0,2;0,2;0,2;0,3;0,2;0,3;0,3;0,3;0,3
3;6;16;3;27;0,2;0,2;0;0,2;0,2;0,3;0,2;0,2;0,3;0,2;0,3;0,2;0,3;0,3;0,3;0,2;0,2;0,2;0,3;0,3;0,3;0,3;0,3;0,3
3;6;16;3;28;0,2;0,2;0,2;0,2;0,2;0,2;0,3;0,3;0,3;0,3;0,3;0,3;0,3;0,3;0,3;0,3;0,3;0,3;0,3;0,3;0,3;0,3;0,3;0,3
3;6;16;3;29;0,3;0,3;0,3;0,3;0,3;0,3;0,3;0,3;0,4;0,3;0,3;0,3;0,3;0,3;0,3;0,3;0,3;0,3;0,3;0,3;0,3;0,4;0,3;0,3
3;6;16;3;30;0,4;0,5;0,4;0,4;0,3;0,3;0,4;0,5;0,7;0,8;0,8;0,6;0,3;0,3;0,3;0,3;0,3;0,3;0,3;0,3;0,3;0,4;0,5;0,3
3;6;16;3;31;0,3;0,2;0,2;0,2;0,3;0,2;0,2;0,3;0,3;0,3;0,3;0,3;0,3;0,3;0,3;0,3;0,3;0,3;0,3;0,3;0,3;0,3;0,3;0,3
3;7;16;3;1;4;5;24;7;10;24;23;46;99;89;106;81;39;25;10;8;5;5;8;13;21;40;64;65
3;7;16;3;2;114;51;79;70;68;85;109;163;165;71;36;35;23;6;4;4;4;3;3;6;3;3;3;2
3;7;16;3;3;1;2;1;1;1;1;2;8;45;26;15;6;12;7;5;3;3;4;4;5;10;16;21;12
3;7;16;3;4;3;21;21;38;46;36;5;16;79;213;29;9;7;6;5;4;3;4;4;5;3;4;3;1
3;7;16;3;5;1;1;1;1;1;1;1;1;4;4;4;4;4;3;4;3;3;3;3;3;3;2;2;2
3;7;16;3;6;2;1;1;1;1;1;1;1;6;2;3;3;4;4;3;3;2;2;3;4;4;3;3;2
3;7;16;3;7;1;1;3;1;1;1;2;3;7;10;13;10;4;5;4;4;3;4;4;4;3;2;2;1
3;7;16;3;8;1;1;1;2;2;1;5;3;5;7;5;4;5;4;4;3;3;3;4;5;16;32;8;11
3;7;16;3;9;9;5;16;19;16;14;8;6;41;9;9;9;8;7;6;5;5;5;4;4;4;2;2;2
3;7;16;3;10;1;1;1;1;1;1;2;16;17;14;5;4;3;3;4;3;4;4;4;5;5;3;2;2
3;7;16;3;11;1;1;1;2;1;1;1;5;12;18;8;8;6;5;5;5;5;4;3;4;9;18;15;5
3;7;16;3;12;3;2;10;6;10;7;7;16;33;29;15;11;12;13;11;7;4;3;2;3;15;22;30;62
3;7;16;3;13;23;7;3;5;3;1;6;3;8;9;7;7;5;4;6;5;4;3;2;4;7;10;32;22
3;7;16;3;14;1;2;1;3;1;1;1;4;21;16;7;5;5;4;4;4;4;3;3;5;24;50;31;2
3;7;16;3;15;1;1;2;1;1;1;2;24;57;61;48;29;11;12;10;6;4;4;3;4;5;3;3;5
3;7;16;3;16;4;13;13;9;2;5;15;64;103;116;56;66;27;8;5;4;3;3;3;4;3;4;2;9
3;7;16;3;17;37;39;37;17;2;1;11;33;66;44;27;29;21;13;4;3;3;3;2;4;5;9;21;29
3;7;16;3;18;17;11;6;2;2;5;17;49;100;73;31;20;11;3;3;3;3;2;3;2;3;2;2;1
3;7;16;3;19;1;3;7;1;1;1;2;2;9;5;4;5;5;4;4;3;3;3;2;3;3;5;4;2
3;7;16;3;20;2;1;2;1;1;1;1;1;2;4;9;10;6;5;4;3;2;3;2;2;3;3;4;3
3;7;16;3;21;11;2;6;1;1;1;3;6;12;12;9;6;6;4;4;3;4;6;5;8;4;5;2;1
3;7;16;3;22;1;1;5;1;1;1;1;2;8;11;10;8;5;5;4;4;4;3;3;3;8;15;33;37
3;7;16;3;23;15;10;5;11;13;9;15;39;71;103;32;19;7;4;3;3;3;2;2;3;2;4;4;4
3;7;16;3;24;1;1;1;1;6;5;6;15;17;10;7;10;9;7;6;3;1;1;1;1;3;3;2;7
3;7;16;3;25;16;25;5;12;3;3;3;6;17;24;28;14;6;2;2;3;2;2;4;4;3;3;6;21
3;7;16;3;26;32;70;32;22;7;10;10;16;16;23;12;4;3;4;3;2;2;3;2;2;3;3;3;3
3;7;16;3;27;2;1;0;1;1;5;1;1;2;1;3;2;3;3;3;2;2;2;2;2;3;3;2;1
3;7;16;3;28;1;1;1;1;2;1;1;3;2;6;7;6;5;6;5;4;7;5;6;5;5;4;2;2
3;7;16;3;29;1;1;2;3;5;1;1;5;4;4;5;5;7;4;3;3;3;3;3;5;2;4;3;5
3;7;16;3;30;3;18;25;20;3;7;18;44;110;142;143;82;25;9;4;3;3;4;3;3;2;2;20;1
3;7;16;3;31;1;1;1;1;1;1;1;2;6;5;5;7;5;4;3;4;4;4;4;3;3;2;2;1
3;10;16;3;1;12;12;16;14;11;13;7;12;18;26;33;40;34;29;21;25;10;9;15;18;17;19;20;18
3;10;16;3;2;22;17;14;16;23;16;14;23;35;41;32;31;29;34;30;18;18;14;13;11;7;5;6;9
3;10;16;3;3;9;4;4;3;2;6;6;8;19;23;19;39;32;32;45;14;15;14;9;13;11;16;17;18
3;10;16;3;4;12;12;11;16;16;17;12;11;15;40;48;24;26;27;25;25;18;19;21;15;10;4;2;1
3;10;16;3;5;5;3;3;1;1;1;1;1;2;4;6;8;4;9;10;7;8;6;5;3;4;1;1;1
3;10;16;3;6;1;2;2;1;1;1;2;3;2;3;8;6;11;11;9;7;7;5;3;3;4;5;6;1
3;10;16;3;7;3;2;1;1;1;2;1;4;3;4;5;11;10;3;3;3;7;2;2;5;4;1;2;4
3;10;16;3;8;3;1;1;1;1;2;1;3;3;8;9;8;11;12;10;9;5;4;5;6;7;12;15;13
3;10;16;3;9;9;8;8;10;10;8;2;8;9;10;14;10;10;1;4;5;7;6;3;7;7;6;6;7
3;10;16;3;10;6;3;4;1;5;7;1;5;18;13;11;7;9;7;10;5;2;4;4;5;6;7;8;8
3;10;16;3;11;6;7;4;4;3;7;5;3;7;12;10;8;9;9;8;6;8;10;9;9;15;16;16;15
3;10;16;3;12;10;9;9;9;12;10;10;14;17;21;22;21;26;25;21;19;16;16;17;15;18;25;23;25
3;10;16;3;13;21;20;16;15;16;12;11;13;13;20;19;25;24;26;25;25;21;18;23;31;30;30;27;28
3;10;16;3;14;21;15;20;26;21;19;17;19;28;31;28;25;23;22;21;19;19;19;16;20;43;32;34;19
3;10;16;3;15;14;10;12;11;11;13;13;19;26;32;39;34;28;28;27;1;17;24;23;29;29;25;23;24
3;10;16;3;16;26;26;26;28;25;21;19;23;38;49;48;1;35;35;19;17;16;14;16;18;23;27;19;22
3;10;16;3;17;23;26;23;25;24;18;18;21;29;32;26;29;31;34;30;20;21;23;18;21;28;30;29;26
3;10;16;3;18;23;15;16;12;13;14;9;17;25;33;36;32;35;29;22;22;15;15;18;12;15;17;15;15
3;10;16;3;19;14;17;18;12;9;11;9;14;12;10;7;3;7;6;6;6;5;1;4;5;5;6;9;7
3;10;16;3;20;7;4;2;7;9;10;8;8;10;10;13;21;16;11;12;10;7;5;7;7;7;8;8;11
3;10;16;3;21;12;11;7;7;12;10;7;9;10;11;10;8;8;10;7;7;5;7;8;10;13;11;6;3
3;10;16;3;22;3;1;1;1;1;1;1;2;6;11;12;16;14;11;11;10;12;9;9;9;10;13;20;22
3;10;16;3;23;23;20;150;20;18;14;15;15;24;35;35;22;19;17;11;11;15;11;12;15;16;19;21;24
3;10;16;3;24;23;16;15;16;17;17;16;16;19;23;25;23;22;18;19;16;12;11;11;13;12;17;18;18
3;10;16;3;25;18;18;15;13;14;12;13;11;14;20;27;30;28;16;15;14;13;11;13;12;15;21;21;23
3;10;16;3;26;26;28;29;19;15;12;12;13;15;25;28;22;19;15;13;12;10;6;5;7;8;8;7;7
3;10;16;3;27;6;5;0;1;1;2;2;2;4;4;4;5;12;13;16;12;8;6;6;6;7;11;9;6
3;10;16;3;28;6;6;5;8;8;8;6;5;7;6;8;12;11;13;14;13;9;10;8;9;9;11;12;16
3;10;16;3;29;13;11;12;13;11;12;14;17;20;20;16;15;14;17;15;13;13;10;6;12;13;16;12;8
3;10;16;3;30;8;11;14;15;8;7;7;10;22;49;41;43;31;28;22;21;18;20;18;16;24;31;24;20
3;10;16;3;31;16;16;19;47;17;8;2;1;1;3;3;10;2;5;6;5;4;1;2;1;5;3;3;4
4;1;16;3;1;2;2;2;2;2;2;2;2;2;3;3;5;4;4;3;2;2;2;2;2;2;2;2;3
4;1;16;3;2;3;3;3;2;2;3;2;3;3;2;2;2;2;2;2;2;2;2;2;2;2;2;2;2
4;1;16;3;3;2;2;2;2;2;2;2;2;2;3;2;2;2;2;2;2;2;2;2;2;2;2;2;2
4;1;16;3;4;2;2;2;2;2;2;2;2;3;5;2;2;2;2;2;2;2;2;2;2;2;2;2;2
4;1;16;3;5;2;2;2;2;2;2;2;2;2;2;2;2;2;2;2;2;2;2;2;2;2;2;2;2
4;1;16;3;6;2;2;2;2;2;2;2;2;2;2;2;2;2;2;2;2;2;2;2;2;2;2;2;2
4;1;16;3;7;2;2;2;2;2;2;2;2;2;2;2;2;2;2;2;2;2;2;2;2;2;2;2;2
4;1;16;3;8;2;2;2;2;2;2;2;2;2;2;2;2;2;2;2;2;2;2;2;0;0;2;2;3
4;1;16;3;9;2;2;2;2;2;2;2;2;2;2;2;2;2;2;2;2;2;2;2;2;2;2;2;2
4;1;16;3;10;2;2;2;2;2;2;2;2;2;2;2;2;2;2;2;2;2;2;2;2;2;2;2;2
4;1;16;3;11;2;2;2;2;2;2;2;2;2;2;2;3;2;2;2;2;2;2;2;2;2;2;2;2
4;1;16;3;12;2;2;2;2;2;2;2;2;2;3;3;3;3;4;3;3;2;2;2;2;2;2;2;2
4;1;16;3;13;2;2;2;2;2;2;2;2;2;2;3;3;3;3;3;3;3;2;2;2;2;2;3;2
4;1;16;3;14;2;2;2;2;2;2;2;2;2;3;2;2;2;2;2;2;2;2;2;2;3;3;2;2
4;1;16;3;15;2;2;2;2;2;2;2;2;3;3;5;5;4;3;3;2;2;2;2;2;2;2;2;2
4;1;16;3;16;2;2;2;2;2;2;3;2;2;4;6;5;4;2;2;2;2;2;2;2;2;2;2;3
4;1;16;3;17;3;2;2;2;2;2;2;2;3;4;4;4;4;3;2;2;2;2;2;2;2;2;2;2
4;1;16;3;18;2;2;2;2;2;2;2;2;2;4;4;3;3;3;2;2;2;2;2;2;2;2;2;2
4;1;16;3;19;2;2;2;2;2;2;2;2;2;2;2;2;2;2;2;2;2;2;2;2;2;2;2;2
4;1;16;3;20;2;2;2;2;2;2;2;2;2;2;2;2;2;2;2;2;2;2;2;2;2;2;2;2
4;1;16;3;21;2;2;2;2;2;2;2;2;3;3;2;2;3;2;2;2;2;2;2;2;2;2;2;2
4;1;16;3;22;2;2;2;2;2;2;2;2;2;2;2;2;2;2;2;2;2;2;2;2;2;2;2;2
4;1;16;3;23;2;2;2;2;2;2;2;2;3;4;3;3;2;2;2;2;2;2;2;2;2;2;2;2
4;1;16;3;24;2;2;2;2;2;2;2;2;2;3;3;2;3;3;2;2;2;2;2;2;2;2;2;2
4;1;16;3;25;2;2;2;2;2;2;2;2;2;3;4;3;3;2;2;2;2;2;2;2;2;2;2;2
4;1;16;3;26;2;2;2;2;2;2;2;2;2;3;3;2;2;2;2;2;2;2;2;2;2;2;2;2
4;1;16;3;27;2;2;0;2;2;2;2;2;2;2;2;2;2;2;2;2;2;2;2;2;2;2;2;2
4;1;16;3;28;2;2;2;2;2;2;2;2;2;2;2;2;2;2;2;2;2;2;2;2;2;2;2;2
4;1;16;3;29;2;2;2;2;2;2;2;2;2;2;2;2;2;2;2;2;2;2;2;2;2;2;2;3
4;1;16;3;30;3;3;2;2;2;2;2;2;2;4;5;6;4;3;2;2;2;2;2;2;2;2;2;2
4;1;16;3;31;2;2;2;2;2;2;2;2;2;2;2;2;2;2;2;2;2;2;2;2;2;2;2;2
4;6;16;3;1;0,3;0,4;0,4;0,4;0,3;0,3;0,3;0,3;0,3;0,4;0,5;0,5;0,4;0,3;0,3;0,3;0,2;0,3;0,3;0,3;0,3;0,3;0,4;0,5
4;6;16;3;2;0,4;0,4;0,4;0,4;0,4;0,4;0,2;0,3;0,3;0,3;0,2;0,2;0,2;0,2;0,2;0,2;0,2;0,2;0,2;0,2;0,2;0,2;0,2;0,2
4;6;16;3;3;0,2;0,2;0,2;0,2;0,2;0,2;0,2;0,2;0,2;0,3;0,3;0,2;0,2;0,2;0,2;0,2;0,2;0,2;0,2;0,3;0,3;0,3;0,3;0,3
4;6;16;3;4;0,3;0,3;0,3;0,3;0,2;0,3;0,3;0,2;0,3;0,6;0,2;0,2;0,3;0,3;0,3;0,2;0,2;0,2;0,3;0,2;0,2;0,2;0,2;0,2
4;6;16;3;5;0,2;0,1;0,2;0,2;0,2;0,2;0,2;0,2;0,2;0,2;0,2;0,2;0,2;0,2;0,2;0,2;0,2;0,2;0,2;0,2;0,2;0,2;0,2;0,2
4;6;16;3;6;0,2;0,2;0,2;0,2;0,2;0,2;0,2;0,2;0,2;0,2;0,2;0,2;0,2;0,2;0,2;0,2;0,2;0,2;0,2;0,2;0,2;0,2;0,2;0,2
4;6;16;3;7;0,2;0,2;0,2;0,2;0,2;0,2;0,3;0,3;0,3;0,3;0,3;0,2;0,2;0,2;0,2;0,2;0,2;0,2;0,2;0,2;0,2;0,2;0,2;0,2
4;6;16;3;8;0,2;0,2;0,2;0,2;0,2;0,2;0,2;0,2;0,2;0,2;0,2;0,2;0,2;0,2;0,2;0,2;0,2;0,2;0,2;0;0;0,6;0,4;0,3
4;6;16;3;9;0,3;0,3;0,3;0,3;0,3;0,2;0,2;0,2;0,3;0,3;0,3;0,3;0,2;0,2;0,2;0,2;0,2;0,2;0,2;0,2;0,1;0,1;0,2;0,2
4;6;16;3;10;0,2;0,2;0,2;0,2;0,2;0,2;0,2;0,2;0,3;0,2;0,2;0,2;0,2;0,2;0,2;0,2;0,2;0,2;0,2;0,2;0,2;0,2;0,2;0,2
4;6;16;3;11;0,2;0,2;0,2;0,2;0,2;0,2;0,2;0,3;0,3;0,3;0,3;0,3;0,2;0,3;0,2;0,3;0,3;0,2;0,3;0,3;0,3;0,3;0,3;0,3
4;6;16;3;12;0,3;0,3;0,3;0,3;0,2;0,3;0,3;0,2;0,3;0,3;0,4;0,3;0,4;0,4;0,3;0,3;0,3;0,3;0,3;0,3;0,3;0,3;0,3;0,3
4;6;16;3;13;0,3;0,3;0,2;0,2;0,2;0,2;0,2;0,2;0,2;0,3;0,3;0,3;0,3;0,3;0,3;0,3;0,3;0,3;0,3;0,3;0,3;0,4;0,4;0,4
4;6;16;3;14;0,3;0,3;0,3;0,3;0,2;0,2;0,3;0,3;0,3;0,4;0,3;0,3;0,3;0,3;0,3;0,3;0,3;0,3;0,3;0,3;0,4;0,5;0,4;0,3
4;6;16;3;15;0,3;0,3;0,3;0,3;0,3;0,3;0,3;0,3;0,3;0,4;0,5;0,5;0,4;0,4;0,3;0,3;0,3;0,3;0,3;0,3;0,3;0,3;0,3;0,3
4;6;16;3;16;0,3;0,3;0,3;0,2;0,3;0,3;0,3;0,3;0,3;0,5;0,7;0,5;0,4;0,3;0,3;0,2;0,2;0,2;0,2;0,2;0,3;0,3;0,3;0,4
4;6;16;3;17;0,4;0,4;0,4;0,3;0,3;0,3;0,3;0,3;0,3;0,5;0,5;0,5;0,4;0,4;0,3;0,3;0,2;0,2;0,2;0,3;0,3;0,3;0,3;0,3
4;6;16;3;18;0,3;0,3;0,3;0,3;0,2;0,2;0,2;0,2;0,3;0,5;0,5;0,4;0,3;0,3;0,3;0,2;0,2;0,2;0,2;0,2;0,3;0,3;0,3;0,3
4;6;16;3;19;0,3;0,3;0,3;0,3;0,3;0,3;0,3;0,3;0,3;0,3;0,2;0,2;0,2;0,2;0,2;0,2;0,2;0,2;0,2;0,2;0,2;0,2;0,2;0,2
4;6;16;3;20;0,2;0,2;0,2;0,2;0,2;0,2;0,2;0,2;0,2;0,2;0,3;0,3;0,3;0,3;0,2;0,2;0,2;0,2;0,2;0,2;0,3;0,3;0,3;0,3
4;6;16;3;21;0,3;0,3;0,2;0,3;0,3;0,2;0,2;0,2;0,3;0,2;0,2;0,2;0,2;0,2;0,2;0,2;0,2;0,3;0,3;0,3;0,3;0,3;0,3;0,2
4;6;16;3;22;0,2;0,2;0,2;0,2;0,2;0,2;0,2;0,2;0,3;0,3;0,3;0,3;0,3;0,3;0,2;0,2;0,2;0,2;0,2;0,2;0,3;0,3;0,3;0,4
4;6;16;3;23;0,4;0,3;0,3;0,3;0,3;0,3;0,2;0,2;0,3;0,5;0,4;0,3;0,3;0,2;0,2;0,2;0,2;0,2;0,2;0,2;0,3;0,3;0,3;0,3
4;6;16;3;24;0,3;0,3;0,2;0,2;0,3;0,2;0,2;0,2;0,3;0,3;0,3;0,3;0,3;0,3;0,3;0,3;0,3;0,3;0,3;0,3;0,2;0,2;0,2;0,3
4;6;16;3;25;0,2;0,3;0,2;0,3;0,3;0,3;0,2;0,2;0,3;0,4;0,5;0,4;0,4;0,3;0,3;0,2;0,2;0,3;0,2;0,3;0,3;0,3;0,3;0,3
4;6;16;3;26;0,3;0,3;0,3;0,3;0,3;0,2;0,2;0,2;0,2;0,4;0,3;0,3;0,3;0,3;0,2;0,2;0,2;0,2;0,2;0,2;0,2;0,2;0,2;0,2
4;6;16;3;27;0,2;0,2;0;0,2;0,2;0,2;0,1;0,1;0,1;0,1;0,1;0,1;0,1;0,2;0,2;0,2;0,2;0,2;0,2;0,2;0,2;0,2;0,2;0,2
4;6;16;3;28;0,2;0,2;0,2;0,2;0,2;0,2;0,2;0,2;0,2;0,2;0,2;0,2;0,3;0,3;0,2;0,2;0,2;0,2;0,2;0,2;0,2;0,2;0,2;0,2
4;6;16;3;29;0,2;0,2;0,2;0,2;0,2;0,2;0,2;0,2;0,2;0,2;0,2;0,2;0,2;5,6;0,2;0,2;0,2;0,2;0,2;0,1;0,1;0,2;0,2;0,2
4;6;16;3;30;0,3;0,3;0,3;0,2;0,2;0,2;0,2;0,2;0,2;0,3;0,6;0,6;0,3;0,3;0,2;0,2;0,2;0,2;0,2;0,2;0,2;0,2;0,3;0,2
4;6;16;3;31;0,2;0,2;0,2;0,2;0,2;0,2;0,2;0,2;0,2;0,2;0,2;0,2;0,2;0,2;0,2;0,2;0,2;0,2;0,2;0,2;0,2;0,2;0,2;0,2
4;7;16;3;1;1;1;2;2;2;5;1;1;25;50;60;69;34;23;8;4;2;2;1;1;1;1;12;15
4;7;16;3;2;23;28;20;10;14;21;1;40;12;6;2;1;1;1;1;1;1;1;1;1;1;1;1;1
4;7;16;3;3;1;1;1;1;1;1;1;1;2;21;4;2;2;2;1;1;1;1;1;1;1;1;1;1
4;7;16;3;4;1;1;1;1;1;1;1;1;21;108;5;4;5;3;1;1;1;1;1;1;1;1;1;1
4;7;16;3;5;1;1;1;1;1;1;1;1;1;1;1;1;1;1;1;1;1;1;1;1;1;1;1;1
4;7;16;3;6;1;1;1;1;1;1;1;1;1;1;1;1;1;1;1;1;1;1;1;1;1;1;1;1
4;7;16;3;7;1;1;1;1;1;1;1;1;1;2;8;4;1;1;1;1;1;1;1;1;1;1;1;1
4;7;16;3;8;1;1;1;1;1;1;1;1;2;2;1;1;1;1;1;1;1;1;1;0;0;3;2;3
4;7;16;3;9;1;1;7;3;7;5;1;2;10;2;2;1;1;2;2;1;1;1;1;1;1;1;1;1
4;7;16;3;10;1;1;1;1;1;1;1;1;2;4;2;1;1;1;1;1;1;1;1;1;1;1;1;1
4;7;16;3;11;1;1;1;1;1;1;1;1;5;7;4;6;3;3;1;2;2;1;1;1;1;1;1;1
4;7;16;3;12;1;1;1;1;1;2;1;1;7;15;11;9;10;9;7;4;2;1;1;1;1;1;1;3
4;7;16;3;13;1;1;1;1;1;1;1;1;3;4;3;3;2;2;3;3;3;2;1;1;1;1;17;1
4;7;16;3;14;1;1;1;1;1;1;1;1;8;11;2;2;2;2;2;2;2;1;1;1;1;3;1;1
4;7;16;3;15;1;1;1;1;1;1;1;1;12;29;35;25;12;7;5;4;1;1;1;1;1;1;1;1
4;7;16;3;16;1;1;1;1;1;10;13;1;10;50;96;61;29;3;2;1;1;1;1;1;1;1;1;2
4;7;16;3;17;7;6;3;1;1;1;1;1;12;29;22;23;18;12;3;1;1;1;1;1;1;1;1;7
4;7;16;3;18;2;1;1;1;1;1;1;1;9;50;41;18;7;2;2;1;1;1;1;1;1;1;1;1
4;7;16;3;19;1;1;1;1;1;1;1;1;1;2;2;1;1;1;1;1;1;1;1;1;1;1;1;1
4;7;16;3;20;1;1;1;1;1;1;1;1;1;1;4;8;6;4;3;2;1;1;1;1;1;1;1;1
4;7;16;3;21;1;1;1;1;1;1;1;1;6;5;3;3;4;2;2;1;1;1;1;1;1;1;1;1
4;7;16;3;22;1;1;1;1;1;1;1;1;5;8;5;4;3;2;3;2;2;1;1;1;1;1;2;7
4;7;16;3;23;13;2;1;1;4;6;1;3;27;79;30;13;3;2;1;1;1;1;1;1;1;1;1;1
4;7;16;3;24;1;1;1;1;1;1;1;2;8;7;4;5;7;6;4;1;1;1;1;1;1;1;1;1
4;7;16;3;25;1;1;1;1;1;1;1;1;8;17;25;17;7;1;1;1;1;1;1;1;1;1;1;1
4;7;16;3;26;1;1;1;1;1;1;1;2;7;30;10;2;1;1;1;1;1;1;1;1;1;1;1;1
4;7;16;3;27;1;1;0;1;1;1;1;1;1;1;1;1;1;1;1;1;1;1;1;1;1;1;1;1
4;7;16;3;28;1;1;1;1;1;1;1;1;1;1;1;1;2;1;1;1;1;1;1;1;1;1;1;1
4;7;16;3;29;1;1;1;1;1;1;1;1;1;2;1;1;1;1;1;1;1;1;1;1;1;1;1;1
4;7;16;3;30;1;1;1;1;1;1;1;1;7;60;108;79;19;7;2;1;1;1;1;1;1;1;1;1
4;7;16;3;31;1;1;1;1;1;1;1;1;1;1;1;1;1;1;1;1;1;1;1;1;1;1;1;1
4;10;16;3;1;8;12;15;17;16;15;9;8;8;16;23;32;33;24;18;15;8;7;8;8;11;10;14;12
4;10;16;3;2;17;23;19;17;14;13;11;10;18;13;14;9;9;9;7;7;6;4;8;3;7;6;5;10
4;10;16;3;3;14;11;9;7;6;7;6;10;7;9;15;9;8;10;8;6;7;8;9;9;11;13;14;13
4;10;16;3;4;11;9;9;13;12;9;8;11;9;20;34;12;10;1;6;14;13;16;17;11;6;9;2;2
4;10;16;3;5;5;3;6;2;2;6;3;3;3;2;2;4;4;5;2;9;10;2;4;5;1;1;3;1
4;10;16;3;6;2;6;1;1;2;4;2;1;1;2;3;3;3;2;14;5;6;1;5;4;3;3;3;1
4;10;16;3;7;1;2;1;1;3;4;3;6;4;1;5;6;3;3;2;3;3;3;3;2;5;6;4;1
4;10;16;3;8;4;6;1;2;1;3;2;2;5;7;7;5;4;4;12;10;4;5;2;0;0;1;4;8
4;10;16;3;9;9;6;9;10;9;9;6;6;4;2;4;6;5;9;8;4;4;5;4;5;4;4;4;5
4;10;16;3;10;3;5;3;2;2;1;1;4;5;6;3;2;4;5;2;5;4;6;4;4;3;5;5;4
4;10;16;3;11;5;7;3;1;5;3;4;2;3;6;4;2;8;8;5;7;8;8;7;7;8;10;10;8
4;10;16;3;12;10;10;11;10;8;9;9;9;6;5;14;16;16;17;20;18;19;17;22;14;18;17;15;19
4;10;16;3;13;18;21;15;13;12;12;14;10;11;15;17;22;20;23;23;27;22;17;17;15;16;19;22;25
4;10;16;3;14;19;16;19;23;21;18;18;21;24;28;25;24;24;22;21;19;16;20;20;19;24;28;26;18
4;10;16;3;15;15;11;13;14;14;15;13;13;15;21;27;34;20;26;22;23;22;21;21;19;23;22;22;20
4;10;16;3;16;22;23;24;21;18;17;17;17;17;26;51;1;15;27;19;22;16;15;16;17;14;16;18;20
4;10;16;3;17;22;24;26;20;19;16;14;12;14;23;27;28;33;34;27;23;21;20;17;19;21;21;23;18
4;10;16;3;18;17;14;15;15;13;14;13;13;13;19;34;36;31;24;19;22;17;18;15;12;11;18;17;13
4;10;16;3;19;17;17;18;18;17;14;10;13;11;10;6;4;5;5;1;2;7;3;2;3;2;2;5;6
4;10;16;3;20;8;7;7;4;5;4;7;7;9;7;7;14;16;14;9;9;9;6;6;7;6;6;7;9
4;10;16;3;21;8;8;7;8;11;12;7;8;10;8;5;4;4;11;4;7;6;5;7;8;7;10;8;5
4;10;16;3;22;3;3;4;3;1;1;1;1;5;10;11;11;13;10;11;11;8;10;9;8;7;8;13;18
4;10;16;3;23;19;21;20;21;17;12;15;14;17;25;37;22;17;14;11;11;15;15;14;15;13;17;20;20
4;10;16;3;24;20;20;18;16;18;17;16;18;14;15;19;20;21;21;17;21;16;13;11;12;11;12;14;15
4;10;16;3;25;14;10;10;10;10;11;12;10;7;12;26;33;33;23;15;15;12;11;11;13;15;14;15;18
4;10;16;3;26;21;22;21;15;13;14;14;14;14;23;30;22;14;11;10;10;9;7;7;7;6;8;8;8
4;10;16;3;27;7;8;0;3;1;1;1;2;3;4;5;6;8;10;9;8;9;6;7;5;5;7;6;6
4;10;16;3;28;6;7;8;9;9;9;9;9;6;6;6;9;9;9;12;8;13;13;15;14;11;8;9;10
4;10;16;3;29;10;14;12;13;14;12;12;15;16;17;14;12;12;10;9;10;8;9;7;8;8;5;9;8
4;10;16;3;30;7;9;11;10;8;8;8;8;10;13;19;37;35;25;23;17;15;15;17;13;12;14;18;18
4;10;16;3;31;15;13;13;12;13;8;1;1;1;3;3;5;2;4;4;2;4;8;2;1;1;2;1;2
5;1;16;3;1;15;9;7;4;3;3;5;6;11;9;17;6;4;5;4;4;7;5;4;7;6;6;10;13
5;1;16;3;2;7;7;6;5;5;4;6;9;14;6;5;4;5;4;4;4;4;4;4;5;5;5;5;4
5;1;16;3;3;4;3;3;3;3;3;3;4;7;7;7;7;8;4;4;4;4;4;5;29;21;9;6;6
5;1;16;3;4;5;4;4;4;4;3;4;5;5;5;4;4;4;4;4;4;4;4;4;3;3;3;3;3
5;1;16;3;5;3;3;3;3;2;3;3;3;3;3;3;3;4;3;3;3;4;4;3;2;2;2;2;2
5;1;16;3;6;2;2;2;2;2;3;3;3;3;3;3;3;3;3;3;3;3;3;4;4;4;4;3;3
5;1;16;3;7;3;3;3;3;3;3;3;2;3;3;3;5;4;5;4;4;3;4;3;3;3;4;3;4
5;1;16;3;8;3;4;5;4;3;3;3;3;5;8;6;4;9;4;3;6;3;3;16;20;4;4;6;9
5;1;16;3;9;5;4;4;4;3;3;3;3;4;4;3;4;4;4;4;4;4;4;4;4;4;4;3;3
5;1;16;3;10;3;3;3;3;3;3;3;3;4;4;3;3;3;3;3;3;4;3;5;15;11;4;4;13
5;1;16;3;11;18;4;3;3;3;3;8;13;32;39;13;10;13;10;12;16;17;10;22;32;47;40;28;23
5;1;16;3;12;13;7;7;5;5;4;4;4;13;7;11;10;7;12;7;7;8;8;5;5;5;9;26;15
5;1;16;3;13;27;14;9;5;4;4;4;7;16;24;19;20;11;15;7;11;6;22;11;5;7;8;37;34
5;1;16;3;14;16;10;6;4;3;4;10;14;27;33;20;14;13;9;13;17;11;17;30;15;50;31;38;43
5;1;16;3;15;31;24;19;12;10;8;9;12;15;15;15;23;8;8;5;5;4;4;5;6;7;6;6;7
5;1;16;3;16;6;5;4;4;5;4;4;5;8;7;7;5;7;5;10;10;5;17;15;4;5;6;9;7
5;1;16;3;17;12;8;6;4;5;4;10;15;23;19;16;16;8;6;6;4;4;4;5;7;6;6;17;21
5;1;16;3;18;14;13;8;5;5;4;4;7;17;23;12;8;6;6;5;5;4;4;5;6;5;5;4;4
5;1;16;3;19;4;6;6;4;4;4;4;4;4;4;4;4;4;4;4;4;4;4;4;4;4;4;4;4
5;1;16;3;20;3;3;3;3;3;3;3;4;9;8;6;10;9;12;14;13;16;8;5;5;6;8;15;8
5;1;16;3;21;12;10;7;6;5;6;6;8;13;26;21;15;18;17;18;11;8;11;8;5;11;7;10;14
5;1;16;3;22;12;8;6;5;5;5;5;6;12;20;15;19;17;13;8;6;6;6;5;6;7;18;24;22
5;1;16;3;23;22;15;8;6;6;5;6;6;12;29;20;17;10;8;9;11;12;11;11;13;5;7;5;17
5;1;16;3;24;14;10;6;5;4;4;4;4;6;12;10;7;9;5;5;4;4;4;4;5;6;7;7;12
5;1;16;3;25;7;6;6;7;6;5;4;4;11;18;8;6;6;5;4;4;6;6;5;5;6;7;6;6
5;1;16;3;26;5;5;5;6;5;4;4;6;16;13;7;7;7;6;6;5;5;5;5;5;4;4;4;4
5;1;16;3;27;4;4;0;4;4;4;4;4;4;4;4;4;4;4;4;4;4;4;4;4;4;4;4;4
5;1;16;3;28;4;4;4;4;4;4;4;4;4;4;4;4;4;4;4;4;4;5;5;4;4;4;4;4
5;1;16;3;29;4;4;4;4;4;4;4;4;4;4;4;5;4;4;4;4;4;4;4;4;4;4;4;4
5;1;16;3;30;4;5;4;4;5;4;5;6;8;11;17;18;12;6;5;5;4;4;4;4;4;5;5;5
5;1;16;3;31;5;5;4;4;4;4;3;3;3;3;3;4;5;5;5;7;15;17;18;14;11;6;5;4
5;6;16;3;1;0,3;0,3;0,2;0,2;0,2;0,2;0,4;1,1;1,4;1;1,1;0,7;0,4;0,3;0,3;0,3;0,3;0,4;0,4;0,6;0,5;0,4;0,3;0,4
5;6;16;3;2;0,4;0,4;0,5;0,6;0,5;0,4;0,6;0,8;1,2;0,6;0,4;0,2;0,2;0,2;0,2;0,2;0,2;0,2;0,3;0,3;0,3;0,3;0,3;0,2
5;6;16;3;3;0,2;0,2;0,2;0,2;0,2;0,2;0,3;0,6;1;0,6;0,5;0,5;0,4;0,3;0,3;0,3;0,3;0,3;0,3;0,6;0,5;0,5;0,6;0,6
5;6;16;3;4;0,5;0,4;0,4;0,3;0,4;0,3;0,4;0,7;0,9;0,6;0,4;0,3;0,3;0,2;0,3;0,2;0,2;0,2;0,3;0,2;0,2;0,3;0,2;0,3
5;6;16;3;5;0,2;0,2;0,2;0,2;0,2;0,2;0,2;0,2;0,2;0,3;0,3;0,3;0,2;0,3;0,3;0,2;0,2;0,2;0,3;0,3;0,3;0,3;0,3;0,3
5;6;16;3;6;0,3;0,3;0,2;0,2;0,2;0,2;0,3;0,3;0,3;0,2;0,3;0,2;0,2;0,2;0,2;0,2;0,2;0,2;0,3;0,3;0,3;0,3;0,3;0,2
5;6;16;3;7;0,2;0,2;0,2;0,2;0,2;0,2;0,2;0,3;0,4;0,4;0,3;0,3;0,2;0,2;0,2;0,2;0,2;0,3;0,2;0,2;0,2;0,2;0,2;0,2
5;6;16;3;8;0,2;0,2;0,2;0,2;0,2;0,2;0,2;0,3;0,3;0,4;0,3;0,2;0,3;0,2;0,2;0,2;0,2;0,2;0,3;0,3;0,3;0,4;0,6;0,7
5;6;16;3;9;0,5;0,4;0,3;0,4;0,3;0,3;0,3;0,3;0,6;0,6;0,4;0,3;0,3;0,2;0,3;0,2;0,2;0,2;0,3;0,3;0,3;0,3;0,2;0,2
5;6;16;3;10;0,2;0,2;0,2;0,2;0,2;0,2;0,2;0,4;0,4;0,4;0,3;0,2;0,2;0,2;0,2;0,2;0,2;0,2;0,2;0,3;0,2;0,2;0,2;0,2
5;6;16;3;11;0,3;0,2;0,2;0,2;0,2;0,2;0,4;0,6;0,6;0,5;0,4;0,3;0,3;0,3;0,3;0,3;0,3;0,3;0,3;0,3;0,3;0,3;0,3;0,4
5;6;16;3;12;0,3;0,3;0,3;0,3;0,3;0,3;0,4;0,4;0,4;0,4;0,6;0,4;0,3;0,3;0,4;0,4;0,3;0,3;0,3;0,3;0,4;0,5;0,5;0,3
5;6;16;3;13;0,5;0,3;0,3;0,2;0,2;0,2;0,2;0,3;0,3;0,9;0,5;0,4;0,3;0,3;0,3;0,3;0,2;0,3;0,4;0,4;0,5;0,5;0,5;0,5
5;6;16;3;14;0,3;0,3;0,3;0,2;0,2;0,3;0,4;0,5;0,5;0,9;0,5;0,4;0,3;0,3;0,3;0,3;0,3;0,4;0,5;0,5;1,2;0,8;0,4;0,4
5;6;16;3;15;0,4;0,4;0,4;0,3;0,3;0,4;0,6;0,6;0,5;0,5;0,5;0,8;0,4;0,4;0,4;0,3;0,3;0,3;0,3;0,4;0,4;0,4;0,4;1,1
5;6;16;3;16;0,8;0,6;0,5;0,4;0,4;0,4;0,5;0,9;1,5;0,9;1,3;2,8;3,5;0,4;0,3;0,3;0,3;0,3;0,3;0,3;0,4;0,5;0,7;0,7
5;6;16;3;17;0,7;0,4;0,3;0,3;0,3;0,3;0,5;0,4;0,5;0,5;0,5;0,5;0,4;0,3;0,3;0,3;0,3;0,3;0,3;0,4;0,4;0,5;0,5;0,4
5;6;16;3;18;0,4;0,3;0,3;0,2;0,2;0,2;0,3;0,5;0,5;0,9;0,4;0,3;0,3;0,3;0,3;0,3;0,3;0,3;0,3;0,3;0,3;0,3;0,3;0,3
5;6;16;3;19;0,3;0,5;0,5;0,2;0,2;0,3;0,3;0,2;0,3;0,3;0,3;0,3;0,3;0,3;0,2;0,2;0,2;0,2;0,2;0,3;0,3;0,3;0,3;0,3
5;6;16;3;20;0,3;0,2;0,2;0,2;0,2;0,3;0,3;0,4;0,4;0,4;0,3;0,4;0,3;0,3;0,4;0,3;0,3;0,3;0,3;0,3;0,3;0,3;0,3;0,3
5;6;16;3;21;0,4;0,5;0,3;0,3;0,3;0,3;0,4;0,5;0,5;0,5;0,8;0,3;0,4;0,3;0,3;0,3;0,2;0,3;0,3;0,3;0,4;0,3;0,3;0,3
5;6;16;3;22;0,3;0,2;0,2;0,2;0,2;0,2;0,3;0,3;0,4;0,6;0,6;0,4;0,3;0,3;0,3;0,3;0,3;0,3;0,3;0,3;0,5;0,4;0,4;0,6
5;6;16;3;23;0,5;0,4;0,4;0,4;0,4;0,4;0,5;0,6;0,6;0,7;0,6;0,3;0,2;0,2;0,2;0,2;0,2;0,2;0,2;0,3;0,3;0,3;0,3;0,4
5;6;16;3;24;0,4;0,3;0,2;0,2;0,2;0,2;0,2;0,3;0,3;0,3;0,3;0,3;0,4;0,3;0,3;0,3;0,2;0,2;0,2;0,3;0,4;0,4;0,5;0,5
5;6;16;3;25;0,6;0,6;0,5;0,7;0,6;0,5;0,3;0,4;0,5;0,5;0,4;0,3;0,3;0,3;0,3;0,2;0,2;0,2;0,3;0,3;0,4;0,5;0,4;0,5
5;6;16;3;26;0,4;0,4;0,4;0,5;0,4;0,3;0,4;0,6;0,7;0,4;0,3;0,3;0,2;0,2;0,2;0,2;0,2;0,2;0,2;0,2;0,2;0,2;0,2;0,2
5;6;16;3;27;0,2;0,2;0;0,2;0,2;0,2;0,2;0,2;0,2;0,2;0,2;0,2;0,2;0,2;0,2;0,2;0,2;0,2;0,2;0,2;0,2;0,2;0,2;0,2
5;6;16;3;28;0,2;0,2;0,2;0,2;0,2;0,2;0,2;0,2;0,3;0,3;0,3;0,3;0,3;0,2;0,2;0,2;0,2;0,3;0,3;0,3;0,3;0,3;0,2;0,2
5;6;16;3;29;0,2;0,2;0,2;0,2;0,2;0,2;0,3;0,3;0,3;0,3;0,3;0,2;0,3;0,2;0,2;0,2;0,2;0,2;0,2;0,2;0,2;0,3;0,3;0,3
5;6;16;3;30;0,3;0,3;0,3;0,2;0,3;0,3;0,4;0,5;0,8;0,9;0,6;0,4;0,4;0,2;0,2;0,2;0,2;0,3;0,2;0,2;0,3;0,3;0,3;0,2
5;6;16;3;31;0,2;0,2;0,2;0,2;0,2;0,2;0,2;0,2;0,3;0,3;0,3;0,3;0,3;0,2;0,2;0,2;0,2;0,2;0,2;0,3;0,3;0,2;0,2;0,2
5;7;16;3;1;1;1;1;1;2;3;34;158;289;184;193;113;36;26;29;20;14;23;28;72;49;20;7;23
5;7;16;3;2;26;16;27;63;53;26;76;131;173;90;41;14;10;13;10;13;10;12;11;10;7;7;4;3
5;7;16;3;3;2;1;1;1;1;2;4;64;154;78;40;29;19;12;9;11;10;14;13;17;23;44;75;46
5;7;16;3;4;24;20;10;3;19;6;28;125;163;121;75;18;13;9;10;7;9;7;6;6;6;7;5;4
5;7;16;3;5;3;2;2;1;2;2;3;3;4;7;8;9;8;11;10;7;5;6;7;6;7;10;8;4
5;7;16;3;6;6;4;3;2;1;1;3;8;7;6;5;6;8;8;8;6;5;5;5;7;11;5;3;2
5;7;16;3;7;2;1;1;1;1;1;3;6;21;43;20;10;6;7;7;7;6;10;7;5;5;4;3;2
5;7;16;3;8;1;1;1;1;1;1;2;6;16;12;5;5;5;6;5;6;4;6;7;10;10;15;44;75
5;7;16;3;9;53;36;16;45;5;8;11;14;68;61;24;14;18;12;13;11;10;13;10;10;13;9;2;2
5;7;16;3;10;2;1;1;2;1;1;5;17;27;29;14;7;7;8;8;6;6;7;7;8;5;4;3;2
5;7;16;3;11;2;1;1;1;1;1;2;7;19;12;8;6;6;6;9;5;6;9;6;7;6;3;5;4
5;7;16;3;12;5;8;5;5;8;3;7;22;10;10;10;10;11;9;18;16;11;8;9;6;15;31;24;5
5;7;16;3;13;3;3;1;3;3;2;3;4;3;5;5;5;5;5;5;6;3;3;4;11;22;15;14;8
5;7;16;3;14;1;1;1;1;1;1;2;3;8;12;5;5;5;6;6;5;5;11;8;7;4;37;5;2
5;7;16;3;15;2;1;1;1;1;1;4;10;22;31;25;18;10;13;16;14;10;11;9;9;9;5;11;12
5;7;16;3;16;53;53;16;9;8;13;47;124;272;114;46;41;38;20;10;7;7;9;11;10;17;20;36;41
5;7;16;3;17;35;5;5;2;1;2;3;6;22;32;16;14;19;20;19;8;10;7;12;13;21;17;9;4
5;7;16;3;18;3;2;2;3;1;3;18;54;49;52;46;26;16;10;7;12;7;4;4;7;7;7;5;6
5;7;16;3;19;3;2;2;2;1;2;2;3;4;4;5;8;11;8;7;6;4;3;4;5;7;8;4;4
5;7;16;3;20;4;3;2;2;2;4;14;17;17;10;12;12;10;10;7;5;4;4;7;3;10;6;8;10
5;7;16;3;21;3;8;4;3;2;3;4;17;18;10;8;8;8;4;7;9;6;13;10;20;22;12;6;3
5;7;16;3;22;3;3;3;1;2;1;3;9;8;15;8;6;6;5;9;10;6;11;8;9;28;16;8;4
5;7;16;3;23;2;2;2;2;3;11;38;50;34;13;17;9;8;5;6;4;6;5;5;3;4;8;4;2
5;7;16;3;24;2;2;2;1;2;1;4;18;12;6;8;12;14;12;8;7;4;3;2;3;5;12;32;19
5;7;16;3;25;36;30;26;58;53;21;13;40;39;19;16;10;8;5;3;3;6;4;3;2;5;16;7;16
5;7;16;3;26;9;12;16;21;10;6;10;30;35;16;10;10;6;4;5;4;3;5;4;4;2;3;3;2
5;7;16;3;27;2;2;0;2;2;1;1;2;2;5;3;4;6;6;5;5;3;3;3;3;3;3;2;2
5;7;16;3;28;1;1;1;1;1;1;2;4;8;9;14;15;12;11;13;7;12;14;12;10;9;6;3;3
5;7;16;3;29;1;1;1;1;2;2;6;22;26;14;9;8;11;10;8;6;8;7;6;7;5;5;6;4
5;7;16;3;30;7;9;3;1;5;16;70;72;145;126;95;33;25;13;9;6;6;10;8;5;5;6;5;1
5;7;16;3;31;1;1;1;1;1;1;2;4;8;12;11;12;16;6;5;5;4;5;6;8;7;6;4;3
5;10;16;3;1;14;13;11;9;7;7;14;31;49;33;39;25;8;4;7;5;14;14;19;37;29;20;22;16
5;10;16;3;2;22;16;16;23;13;19;35;24;36;35;22;12;7;10;10;4;18;17;18;7;14;12;9;10
5;10;16;3;3;3;5;8;5;10;13;13;23;37;20;30;3;4;5;1;4;13;17;22;25;25;24;37;23
5;10;16;3;4;19;19;17;15;19;15;24;37;41;32;28;15;24;14;8;20;11;27;28;14;21;10;1;2
5;10;16;3;5;8;5;5;9;2;10;8;6;4;11;7;2;1;1;2;11;16;7;17;12;10;5;14;9
5;10;16;3;6;8;4;8;6;3;8;9;3;6;5;1;4;1;2;1;1;3;10;17;16;14;5;10;9
5;10;16;3;7;8;6;4;3;1;11;20;11;11;12;2;2;1;1;2;6;4;16;13;12;11;10;1;5
5;10;16;3;8;10;3;6;2;4;5;8;8;9;3;5;8;4;4;1;1;5;7;14;13;13;14;19;21
5;10;16;3;9;16;17;14;19;8;9;10;11;16;17;21;11;9;3;6;9;3;6;3;3;15;24;15;13
5;10;16;3;10;13;7;7;5;7;4;4;7;6;6;6;7;4;5;3;3;2;10;13;12;9;10;8;7
5;10;16;3;11;6;6;4;3;3;6;17;12;14;8;1;2;2;2;1;1;1;10;16;18;24;21;19;8
5;10;16;3;12;8;14;9;12;13;10;22;16;1;4;4;5;3;1;5;5;10;12;22;16;26;31;20;19
5;10;16;3;13;13;7;14;11;10;12;10;13;5;5;5;7;1;1;1;3;5;10;12;25;23;25;27;15
5;10;16;3;14;11;36;28;15;7;16;26;8;14;16;8;12;1;2;1;4;10;21;9;21;26;54;27;26
5;10;16;3;15;20;15;14;11;8;21;54;7;12;11;6;4;1;1;4;15;46;15;25;28;19;18;39;19
5;10;16;3;16;34;58;18;32;14;22;25;29;63;19;1;7;11;5;4;11;3;8;16;17;19;16;18;30
5;10;16;3;17;34;16;16;17;12;14;41;18;22;5;15;8;21;18;17;21;16;19;15;34;11;11;33;13
5;10;16;3;18;15;11;9;10;10;16;13;20;21;20;21;24;24;21;13;13;16;18;25;26;21;11;13;12
5;10;16;3;19;8;13;12;6;3;8;9;6;11;10;5;6;10;2;5;2;8;4;15;9;5;10;7;15
5;10;16;3;20;12;9;8;5;8;6;8;18;15;6;6;13;3;2;4;5;4;13;5;15;14;6;11;9
5;10;16;3;21;6;17;10;13;10;13;26;13;10;7;6;1;10;2;2;22;10;8;8;21;13;11;8;7
5;10;16;3;22;5;5;5;6;4;3;9;8;5;19;12;3;6;2;6;13;17;11;9;14;16;7;17;14
5;10;16;3;23;26;6;10;20;11;12;23;24;13;8;16;8;10;3;3;10;10;9;15;14;17;16;17;18
5;10;16;3;24;8;12;14;5;15;11;21;12;18;15;7;7;12;9;7;10;11;14;13;25;11;19;18;21
5;10;16;3;25;25;24;13;23;28;24;14;18;23;14;9;19;23;8;13;7;8;14;15;20;15;17;21;21
5;10;16;3;26;31;27;20;18;31;16;10;29;29;5;20;24;13;6;10;16;16;2;10;4;10;12;10;7
5;10;16;3;27;17;12;0;3;1;25;1;13;10;6;11;20;12;12;6;1;10;7;2;19;17;19;11;9
5;10;16;3;28;11;16;13;12;11;14;16;4;6;12;15;24;25;13;11;9;7;21;13;13;11;14;18;9
5;10;16;3;29;12;11;12;10;14;12;14;15;24;22;13;25;21;7;2;15;13;4;7;12;9;13;17;10
5;10;16;3;30;19;16;13;19;17;15;23;19;26;18;22;26;15;13;4;15;11;9;18;25;13;24;18;30
5;10;16;3;31;13;11;7;12;12;15;14;16;12;8;12;5;1;3;5;11;11;4;6;7;10;11;10;9
